{
    "global_title": "Tiled matrix multiplication - Cache statistics of the 3 performance segments",
    "xlabel": "Configurations (block_size_x,block_size_y,shmem_tile_size)",
    "type": "bar",
    "align": "center",
    "horizontal_lines_major": "True",
    "horizontal_lines_minor": "True",
    "sort_results": {
        "key": 3,
        "type": "float",
        "reverse": "True"
    },
    "data_filters": [
        {
            "type": "top",
            "amount": 10,
            "end_percent": 50
        },
        {
            "type": "top",
            "amount": 10,
            "end_percent": 75
        },
        {
            "type": "top",
            "amount": 10,
            "end_percent": 100
        }
    ],
    "hatches": ["//", "..", "\\\\"],
    "subplots": {
        "position": [221, 222, 223, 224],
        "title": ["L1 hit rate", "L2 hit rate", "L1 requests", "L2 read requests"],
        "color": ["#599ad3", "#f9a65a", "#599ad3", "#f9a65a"],
        "ylabel": ["L1 hit rate (%)", "L2 read hit rate (%)", "L1 requests", "L2 read requests"],
        "ydata": [
            {
                "row": 11,
                "type": "float"
            },
            {
                "row": 12,
                "type": "float"
            },
            {
                "row": 9,
                "type": "float"
            },
            {
                "row": 10,
                "type": "float"
            }
        ],
        "ylim": [[0,100], [0,100], [0,4000000000], [0,4000000000]]
    },
    "xticks": {
        "start": "(",
        "separator": ",",
        "end": ")",
        "rows": [0,1,2]
    },
    "xticks_rotation": 270,
    "xdata": {
        "row": -1
    },
    "global_legend": {
        "loc": "lower center",
        "use_hatches": "True",
        "row_title": "Performance segments:",
        "ncol": 4,
        "markerfirst": ""
    },
    "tight": "True",
    "custom_subplot_config": {"bottom": 0.21, "top": 0.93, "hspace": 0.7},
    "labels": ["Low", "Medium", "High"],
    "csv": "../cuda/results/shmem_tile_size_data.json"
}
