{
    "global_title": "Tiled matrix multiplication - Nvprof metrics of the 3 performance segments",
    "xlabel": "Configurations (block_size_x,block_size_y,shmem_tile_size)",
    "type": "bar",
    "align": "center",
    "horizontal_lines_major": "True",
    "horizontal_lines_minor": "True",
    "sort_results": {
        "key": 3,
        "type": "float",
        "reverse": "True"
    },
    "hatches": ["//", "..", "\\\\"],
    "subplots": {
        "position": [221, 222, 223, 224],
        "title": ["Shared memory load throughput", "Shared memory store throughput", "Eligible warps per cycle", "Instructions per cycle"],
        "color": ["#79c36a", "#79c36a", "#f1595f", "#f1595f"],
        "ylabel": ["Load throughput (GB/s)", "Store throughput (GB/s)", "Eligible warps per cycle", "Instructions per cycle"],
        "ydata": [
            {
                "row": 22,
                "type": "float"
            },
            {
                "row": 23,
                "type": "float"
            },
            {
                "row": 19,
                "type": "float"
            },
            {
                "row": 21,
                "type": "float"
            }
        ],
        "ylim": [[0,4000], [0,500], [0,5], [0,3]]
    },
    "xticks": {
        "start": "(",
        "separator": ",",
        "end": ")",
        "rows": [0,1,2]
    },
    "xticks_rotation": 270,
    "xdata": {
        "row": -1
    },
    "global_legend": {
        "loc": "lower center",
        "use_hatches": "True",
        "row_title": "Performance segments:",
        "ncol": 4,
        "markerfirst": ""
    },
    "tight": "True",
    "custom_subplot_config": {"bottom": 0.21, "top": 0.93, "hspace": 0.7},
    "labels": ["Low", "Medium", "High"],
    "csv": "../cuda/results/shmem_tile_size_data_performance_segments.json"
}
