{
    "title": "Naive matrix multiplication theoretical data sharing per block size configuration",
    "xlabel": "Configurations (block_size_x,block_size_y)",
    "ylabel": "Relative data sharing compared to the best and worst case scenarios",
    "type": "stacked_bar",
    "color": ["#79c36a","#599ad3"],
    "align": "center",
    "horizontal_lines_major": "True",
    "horizontal_lines_minor": "True",
    "xticks": {
        "start": "(",
        "separator": ",",
        "end": ")",
        "rows": [0,1]
    },
    "xticks_rotation": 270,
    "xdata": {
        "row": -1
    },
    "ydata": [
        {
            "row": 2,
            "type": "float",
            "transform": "First subtract the best case scenario fetches from the current fetches, then divide the result by the worst - best case fetches and subtract the resulting number from 1 to turn the scale to worst being 0 and best being 1",
            "transform": ["subtract_this", 524288, "divide_this", 44564480, "subtract_that", 1]
        },
        {
            "row": 3,
            "type": "float",
            "transform": "First subtract the best case scenario fetches from the current fetches, then divide the result by the worst - best case fetches and subtract the resulting number from 1 to turn the scale to worst being 0 and best being 1",
            "transform": ["subtract_this", 2097152, "divide_this", 2145386496, "subtract_that", 1]
        }
    ],
    "bottom": ["None", 0],
    "labels": ["input matrix A row data sharing", "input matrix B column data sharing"],
    "tight": "True",
    "legend": {
        "loc": "lower right"
    },
    "csv": "block_size_x,block_size_y,row_memory_fetches,column_memory_fetches",
    "csv": [
        "1,1,3145728,2147483648",
        "1,2,3145728,1073741824",
        "1,4,3145728,536870912",
        "1,8,3145728,268435456",
        "1,16,3145728,134217728",
        "1,32,3145728,67108864",
        "1,64,3145728,33554432",
        "1,128,5767168,16777216",
        "1,256,11534336,8388608",
        "1,512,22544384,4194304",
        "1,1024,45088768,2097152",
        "2,1,1572864,2147483648",
        "2,2,1572864,1073741824",
        "2,4,1572864,536870912",
        "2,8,1572864,268435456",
        "2,16,1572864,134217728",
        "2,32,1572864,67108864",
        "2,64,3145728,33554432",
        "2,128,5767168,16777216",
        "2,256,11534336,8388608",
        "2,512,22544384,4194304",
        "4,1,1048576,2147483648",
        "4,2,1048576,1073741824",
        "4,4,1048576,536870912",
        "4,8,1048576,268435456",
        "4,16,1048576,134217728",
        "4,32,1572864,67108864",
        "4,64,3145728,33554432",
        "4,128,5767168,16777216",
        "4,256,11534336,8388608",
        "8,1,699136,1431830528",
        "8,2,699136,716177408",
        "8,4,699136,358088704",
        "8,8,699136,179306496",
        "8,16,1048576,134217728",
        "8,32,1572864,67108864",
        "8,64,3145728,33554432",
        "8,128,5767168,16777216",
        "16,1,524288,716177408",
        "16,2,524288,358088704",
        "16,4,524288,179306496",
        "16,8,699136,179306496",
        "16,16,1048576,134217728",
        "16,32,1572864,67108864",
        "16,64,3145728,33554432",
        "32,1,524288,358088704",
        "32,2,524288,179306496",
        "32,4,524288,179306496",
        "32,8,699136,179306496",
        "32,16,1048576,134217728",
        "32,32,1572864,67108864",
        "64,1,524288,179306496",
        "64,2,524288,179306496",
        "64,4,524288,179306496",
        "64,8,699136,179306496",
        "64,16,1048576,134217728",
        "128,1,524288,179306496",
        "128,2,524288,179306496",
        "128,4,524288,179306496",
        "128,8,699136,179306496",
        "256,1,524288,179306496",
        "256,2,524288,179306496",
        "256,4,524288,179306496",
        "512,1,524288,179306496",
        "512,2,524288,179306496",
        "1024,1,524288,179306496"
    ]
}
