6,16,6
6,16,12
6,16,16
6,16,18
6,16,24
6,16,30
6,16,32
6,16,36
6,16,42
6,16,48
6,16,54
6,16,60
6,16,64
6,16,66
6,16,72
6,16,78
6,16,80
6,16,84
6,16,90
6,16,96
6,16,102
6,16,108
6,16,112
6,16,114
6,16,120
6,16,126
6,16,128
6,16,132
6,16,138
6,16,144
6,16,150
6,16,156
6,16,160
6,16,162
6,16,168
6,16,174
6,16,176
6,16,180
6,16,186
6,16,192
6,16,198
6,16,204
6,16,208
6,16,210
6,16,216
6,16,222
6,16,224
6,16,228
6,16,234
6,16,240
6,16,246
6,16,252
6,16,256
6,16,258
6,16,264
6,16,270
6,16,272
6,16,276
6,16,282
6,16,288
6,16,294
6,16,300
6,16,304
6,16,306
6,16,312
6,16,318
6,16,320
6,16,324
6,16,330
6,16,336
6,16,342
6,16,348
6,16,352
6,16,354
6,16,360
6,16,366
6,16,368
6,16,372
6,16,378
6,16,384
6,16,390
6,16,396
6,16,400
6,16,402
6,16,408
6,16,414
6,16,416
6,16,420
6,16,426
6,16,432
6,16,438
6,16,444
6,16,448
6,16,450
6,16,456
6,16,462
6,16,464
6,16,468
6,16,474
6,16,480
6,16,486
6,16,492
6,16,496
6,16,498
6,16,504
6,16,510
6,16,512
6,16,516
6,16,522
6,16,528
6,16,534
6,16,540
6,16,544
6,16,546
6,16,552
6,16,558
6,32,6
6,32,12
6,32,18
6,32,24
6,32,30
6,32,32
6,32,36
6,32,42
6,32,48
6,32,54
6,32,60
6,32,64
6,32,66
6,32,72
6,32,78
6,32,84
6,32,90
6,32,96
6,32,102
6,32,108
6,32,114
6,32,120
6,32,126
6,32,128
6,32,132
6,32,138
6,32,144
6,32,150
6,32,156
6,32,160
6,32,162
6,32,168
6,32,174
6,32,180
6,32,186
6,32,192
6,32,198
6,32,204
6,32,210
6,32,216
6,32,222
6,32,224
6,32,228
6,32,234
6,32,240
6,32,246
6,32,252
6,32,256
6,32,258
6,32,264
6,32,270
6,32,276
6,32,282
6,32,288
6,32,294
6,32,300
6,32,306
6,32,312
6,32,318
6,32,320
6,48,6
6,48,12
6,48,18
6,48,24
6,48,30
6,48,36
6,48,42
6,48,48
6,48,54
6,48,60
6,48,66
6,48,72
6,48,78
6,48,84
6,48,90
6,48,96
6,48,102
6,48,108
6,48,114
6,48,120
6,48,126
6,48,132
6,48,138
6,48,144
6,48,150
6,48,156
6,48,162
6,48,168
6,48,174
6,48,180
6,48,186
6,48,192
6,48,198
6,48,204
6,48,210
6,48,216
6,48,222
6,64,6
6,64,12
6,64,18
6,64,24
6,64,30
6,64,36
6,64,42
6,64,48
6,64,54
6,64,60
6,64,64
6,64,66
6,64,72
6,64,78
6,64,84
6,64,90
6,64,96
6,64,102
6,64,108
6,64,114
6,64,120
6,64,126
6,64,128
6,64,132
6,64,138
6,64,144
6,64,150
6,64,156
6,64,162
6,64,168
6,64,174
6,80,6
6,80,12
6,80,18
6,80,24
6,80,30
6,80,36
6,80,42
6,80,48
6,80,54
6,80,60
6,80,66
6,80,72
6,80,78
6,80,80
6,80,84
6,80,90
6,80,96
6,80,102
6,80,108
6,80,114
6,80,120
6,80,126
6,80,132
6,80,138
6,96,6
6,96,12
6,96,18
6,96,24
6,96,30
6,96,36
6,96,42
6,96,48
6,96,54
6,96,60
6,96,66
6,96,72
6,96,78
6,96,84
6,96,90
6,96,96
6,96,102
6,96,108
6,96,114
6,96,120
6,112,6
6,112,12
6,112,18
6,112,24
6,112,30
6,112,36
6,112,42
6,112,48
6,112,54
6,112,60
6,112,66
6,112,72
6,112,78
6,112,84
6,112,90
6,112,96
6,112,102
6,128,6
6,128,12
6,128,18
6,128,24
6,128,30
6,128,36
6,128,42
6,128,48
6,128,54
6,128,60
6,128,66
6,128,72
6,128,78
6,128,84
6,128,90
7,32,7
7,32,14
7,32,21
7,32,28
7,32,32
7,32,35
7,32,42
7,32,49
7,32,56
7,32,63
7,32,64
7,32,70
7,32,77
7,32,84
7,32,91
7,32,96
7,32,98
7,32,105
7,32,112
7,32,119
7,32,126
7,32,128
7,32,133
7,32,140
7,32,147
7,32,154
7,32,160
7,32,161
7,32,168
7,32,175
7,32,182
7,32,189
7,32,192
7,32,196
7,32,203
7,32,210
7,32,217
7,32,224
7,32,231
7,32,238
7,32,245
7,32,252
7,32,256
7,32,259
7,32,266
7,32,273
7,32,280
7,32,287
7,32,288
7,32,294
7,32,301
7,32,308
7,32,315
7,64,7
7,64,14
7,64,21
7,64,28
7,64,35
7,64,42
7,64,49
7,64,56
7,64,63
7,64,64
7,64,70
7,64,77
7,64,84
7,64,91
7,64,98
7,64,105
7,64,112
7,64,119
7,64,126
7,64,128
7,64,133
7,64,140
7,64,147
7,64,154
7,64,161
7,64,168
7,96,7
7,96,14
7,96,21
7,96,28
7,96,35
7,96,42
7,96,49
7,96,56
7,96,63
7,96,70
7,96,77
7,96,84
7,96,91
7,96,96
7,96,98
7,96,105
7,96,112
7,96,119
7,128,7
7,128,14
7,128,21
7,128,28
7,128,35
7,128,42
7,128,49
7,128,56
7,128,63
7,128,70
7,128,77
7,128,84
7,128,91
8,4,4
8,4,8
8,4,12
8,4,16
8,4,20
8,4,24
8,4,28
8,4,32
8,4,36
8,4,40
8,4,44
8,4,48
8,4,52
8,4,56
8,4,60
8,4,64
8,4,68
8,4,72
8,4,76
8,4,80
8,4,84
8,4,88
8,4,92
8,4,96
8,4,100
8,4,104
8,4,108
8,4,112
8,4,116
8,4,120
8,4,124
8,4,128
8,4,132
8,4,136
8,4,140
8,4,144
8,4,148
8,4,152
8,4,156
8,4,160
8,4,164
8,4,168
8,4,172
8,4,176
8,4,180
8,4,184
8,4,188
8,4,192
8,4,196
8,4,200
8,4,204
8,4,208
8,4,212
8,4,216
8,4,220
8,4,224
8,4,228
8,4,232
8,4,236
8,4,240
8,4,244
8,4,248
8,4,252
8,4,256
8,4,260
8,4,264
8,4,268
8,4,272
8,4,276
8,4,280
8,4,284
8,4,288
8,4,292
8,4,296
8,4,300
8,4,304
8,4,308
8,4,312
8,4,316
8,4,320
8,4,324
8,4,328
8,4,332
8,4,336
8,4,340
8,4,344
8,4,348
8,4,352
8,4,356
8,4,360
8,4,364
8,4,368
8,4,372
8,4,376
8,4,380
8,4,384
8,4,388
8,4,392
8,4,396
8,4,400
8,4,404
8,4,408
8,4,412
8,4,416
8,4,420
8,4,424
8,4,428
8,4,432
8,4,436
8,4,440
8,4,444
8,4,448
8,4,452
8,4,456
8,4,460
8,4,464
8,4,468
8,4,472
8,4,476
8,4,480
8,4,484
8,4,488
8,4,492
8,4,496
8,4,500
8,4,504
8,4,508
8,4,512
8,4,516
8,4,520
8,4,524
8,4,528
8,4,532
8,4,536
8,4,540
8,4,544
8,4,548
8,4,552
8,4,556
8,4,560
8,4,564
8,4,568
8,4,572
8,4,576
8,4,580
8,4,584
8,4,588
8,4,592
8,4,596
8,4,600
8,4,604
8,4,608
8,4,612
8,4,616
8,4,620
8,4,624
8,4,628
8,4,632
8,4,636
8,4,640
8,4,644
8,4,648
8,4,652
8,4,656
8,4,660
8,4,664
8,4,668
8,4,672
8,4,676
8,4,680
8,4,684
8,4,688
8,4,692
8,4,696
8,4,700
8,4,704
8,4,708
8,4,712
8,4,716
8,4,720
8,4,724
8,4,728
8,4,732
8,4,736
8,4,740
8,4,744
8,4,748
8,4,752
8,4,756
8,4,760
8,4,764
8,4,768
8,4,772
8,4,776
8,4,780
8,4,784
8,4,788
8,4,792
8,4,796
8,4,800
8,4,804
8,4,808
8,4,812
8,4,816
8,4,820
8,4,824
8,4,828
8,4,832
8,4,836
8,4,840
8,4,844
8,4,848
8,4,852
8,4,856
8,4,860
8,4,864
8,4,868
8,4,872
8,4,876
8,4,880
8,4,884
8,4,888
8,4,892
8,4,896
8,4,900
8,4,904
8,4,908
8,4,912
8,4,916
8,4,920
8,4,924
8,4,928
8,4,932
8,4,936
8,4,940
8,4,944
8,4,948
8,4,952
8,4,956
8,4,960
8,4,964
8,4,968
8,4,972
8,4,976
8,4,980
8,4,984
8,4,988
8,4,992
8,4,996
8,4,1000
8,4,1004
8,4,1008
8,4,1012
8,4,1016
8,4,1020
8,4,1024
8,8,8
8,8,16
8,8,24
8,8,32
8,8,40
8,8,48
8,8,56
8,8,64
8,8,72
8,8,80
8,8,88
8,8,96
8,8,104
8,8,112
8,8,120
8,8,128
8,8,136
8,8,144
8,8,152
8,8,160
8,8,168
8,8,176
8,8,184
8,8,192
8,8,200
8,8,208
8,8,216
8,8,224
8,8,232
8,8,240
8,8,248
8,8,256
8,8,264
8,8,272
8,8,280
8,8,288
8,8,296
8,8,304
8,8,312
8,8,320
8,8,328
8,8,336
8,8,344
8,8,352
8,8,360
8,8,368
8,8,376
8,8,384
8,8,392
8,8,400
8,8,408
8,8,416
8,8,424
8,8,432
8,8,440
8,8,448
8,8,456
8,8,464
8,8,472
8,8,480
8,8,488
8,8,496
8,8,504
8,8,512
8,8,520
8,8,528
8,8,536
8,8,544
8,8,552
8,8,560
8,8,568
8,8,576
8,8,584
8,8,592
8,8,600
8,8,608
8,8,616
8,8,624
8,8,632
8,8,640
8,8,648
8,8,656
8,8,664
8,8,672
8,8,680
8,8,688
8,8,696
8,8,704
8,8,712
8,8,720
8,8,728
8,8,736
8,8,744
8,8,752
8,8,760
8,8,768
8,12,8
8,12,12
8,12,16
8,12,24
8,12,32
8,12,36
8,12,40
8,12,48
8,12,56
8,12,60
8,12,64
8,12,72
8,12,80
8,12,84
8,12,88
8,12,96
8,12,104
8,12,108
8,12,112
8,12,120
8,12,128
8,12,132
8,12,136
8,12,144
8,12,152
8,12,156
8,12,160
8,12,168
8,12,176
8,12,180
8,12,184
8,12,192
8,12,200
8,12,204
8,12,208
8,12,216
8,12,224
8,12,228
8,12,232
8,12,240
8,12,248
8,12,252
8,12,256
8,12,264
8,12,272
8,12,276
8,12,280
8,12,288
8,12,296
8,12,300
8,12,304
8,12,312
8,12,320
8,12,324
8,12,328
8,12,336
8,12,344
8,12,348
8,12,352
8,12,360
8,12,368
8,12,372
8,12,376
8,12,384
8,12,392
8,12,396
8,12,400
8,12,408
8,12,416
8,12,420
8,12,424
8,12,432
8,12,440
8,12,444
8,12,448
8,12,456
8,12,464
8,12,468
8,12,472
8,12,480
8,12,488
8,12,492
8,12,496
8,12,504
8,12,512
8,12,516
8,12,520
8,12,528
8,12,536
8,12,540
8,12,544
8,12,552
8,12,560
8,12,564
8,12,568
8,12,576
8,12,584
8,12,588
8,12,592
8,12,600
8,12,608
8,12,612
8,16,8
8,16,16
8,16,24
8,16,32
8,16,40
8,16,48
8,16,56
8,16,64
8,16,72
8,16,80
8,16,88
8,16,96
8,16,104
8,16,112
8,16,120
8,16,128
8,16,136
8,16,144
8,16,152
8,16,160
8,16,168
8,16,176
8,16,184
8,16,192
8,16,200
8,16,208
8,16,216
8,16,224
8,16,232
8,16,240
8,16,248
8,16,256
8,16,264
8,16,272
8,16,280
8,16,288
8,16,296
8,16,304
8,16,312
8,16,320
8,16,328
8,16,336
8,16,344
8,16,352
8,16,360
8,16,368
8,16,376
8,16,384
8,16,392
8,16,400
8,16,408
8,16,416
8,16,424
8,16,432
8,16,440
8,16,448
8,16,456
8,16,464
8,16,472
8,16,480
8,16,488
8,16,496
8,16,504
8,16,512
8,20,8
8,20,16
8,20,20
8,20,24
8,20,32
8,20,40
8,20,48
8,20,56
8,20,60
8,20,64
8,20,72
8,20,80
8,20,88
8,20,96
8,20,100
8,20,104
8,20,112
8,20,120
8,20,128
8,20,136
8,20,140
8,20,144
8,20,152
8,20,160
8,20,168
8,20,176
8,20,180
8,20,184
8,20,192
8,20,200
8,20,208
8,20,216
8,20,220
8,20,224
8,20,232
8,20,240
8,20,248
8,20,256
8,20,260
8,20,264
8,20,272
8,20,280
8,20,288
8,20,296
8,20,300
8,20,304
8,20,312
8,20,320
8,20,328
8,20,336
8,20,340
8,20,344
8,20,352
8,20,360
8,20,368
8,20,376
8,20,380
8,20,384
8,20,392
8,20,400
8,20,408
8,20,416
8,20,420
8,20,424
8,20,432
8,24,8
8,24,16
8,24,24
8,24,32
8,24,40
8,24,48
8,24,56
8,24,64
8,24,72
8,24,80
8,24,88
8,24,96
8,24,104
8,24,112
8,24,120
8,24,128
8,24,136
8,24,144
8,24,152
8,24,160
8,24,168
8,24,176
8,24,184
8,24,192
8,24,200
8,24,208
8,24,216
8,24,224
8,24,232
8,24,240
8,24,248
8,24,256
8,24,264
8,24,272
8,24,280
8,24,288
8,24,296
8,24,304
8,24,312
8,24,320
8,24,328
8,24,336
8,24,344
8,24,352
8,24,360
8,24,368
8,24,376
8,24,384
8,28,8
8,28,16
8,28,24
8,28,28
8,28,32
8,28,40
8,28,48
8,28,56
8,28,64
8,28,72
8,28,80
8,28,84
8,28,88
8,28,96
8,28,104
8,28,112
8,28,120
8,28,128
8,28,136
8,28,140
8,28,144
8,28,152
8,28,160
8,28,168
8,28,176
8,28,184
8,28,192
8,28,196
8,28,200
8,28,208
8,28,216
8,28,224
8,28,232
8,28,240
8,28,248
8,28,252
8,28,256
8,28,264
8,28,272
8,28,280
8,28,288
8,28,296
8,28,304
8,28,308
8,28,312
8,28,320
8,28,328
8,28,336
8,32,8
8,32,16
8,32,24
8,32,32
8,32,40
8,32,48
8,32,56
8,32,64
8,32,72
8,32,80
8,32,88
8,32,96
8,32,104
8,32,112
8,32,120
8,32,128
8,32,136
8,32,144
8,32,152
8,32,160
8,32,168
8,32,176
8,32,184
8,32,192
8,32,200
8,32,208
8,32,216
8,32,224
8,32,232
8,32,240
8,32,248
8,32,256
8,32,264
8,32,272
8,32,280
8,32,288
8,32,296
8,32,304
8,36,8
8,36,16
8,36,24
8,36,32
8,36,36
8,36,40
8,36,48
8,36,56
8,36,64
8,36,72
8,36,80
8,36,88
8,36,96
8,36,104
8,36,108
8,36,112
8,36,120
8,36,128
8,36,136
8,36,144
8,36,152
8,36,160
8,36,168
8,36,176
8,36,180
8,36,184
8,36,192
8,36,200
8,36,208
8,36,216
8,36,224
8,36,232
8,36,240
8,36,248
8,36,252
8,36,256
8,36,264
8,36,272
8,40,8
8,40,16
8,40,24
8,40,32
8,40,40
8,40,48
8,40,56
8,40,64
8,40,72
8,40,80
8,40,88
8,40,96
8,40,104
8,40,112
8,40,120
8,40,128
8,40,136
8,40,144
8,40,152
8,40,160
8,40,168
8,40,176
8,40,184
8,40,192
8,40,200
8,40,208
8,40,216
8,40,224
8,40,232
8,40,240
8,40,248
8,40,256
8,44,8
8,44,16
8,44,24
8,44,32
8,44,40
8,44,44
8,44,48
8,44,56
8,44,64
8,44,72
8,44,80
8,44,88
8,44,96
8,44,104
8,44,112
8,44,120
8,44,128
8,44,132
8,44,136
8,44,144
8,44,152
8,44,160
8,44,168
8,44,176
8,44,184
8,44,192
8,44,200
8,44,208
8,44,216
8,44,220
8,44,224
8,44,232
8,48,8
8,48,16
8,48,24
8,48,32
8,48,40
8,48,48
8,48,56
8,48,64
8,48,72
8,48,80
8,48,88
8,48,96
8,48,104
8,48,112
8,48,120
8,48,128
8,48,136
8,48,144
8,48,152
8,48,160
8,48,168
8,48,176
8,48,184
8,48,192
8,48,200
8,48,208
8,48,216
8,52,8
8,52,16
8,52,24
8,52,32
8,52,40
8,52,48
8,52,52
8,52,56
8,52,64
8,52,72
8,52,80
8,52,88
8,52,96
8,52,104
8,52,112
8,52,120
8,52,128
8,52,136
8,52,144
8,52,152
8,52,156
8,52,160
8,52,168
8,52,176
8,52,184
8,52,192
8,52,200
8,56,8
8,56,16
8,56,24
8,56,32
8,56,40
8,56,48
8,56,56
8,56,64
8,56,72
8,56,80
8,56,88
8,56,96
8,56,104
8,56,112
8,56,120
8,56,128
8,56,136
8,56,144
8,56,152
8,56,160
8,56,168
8,56,176
8,56,184
8,56,192
8,60,8
8,60,16
8,60,24
8,60,32
8,60,40
8,60,48
8,60,56
8,60,60
8,60,64
8,60,72
8,60,80
8,60,88
8,60,96
8,60,104
8,60,112
8,60,120
8,60,128
8,60,136
8,60,144
8,60,152
8,60,160
8,60,168
8,60,176
8,60,180
8,64,8
8,64,16
8,64,24
8,64,32
8,64,40
8,64,48
8,64,56
8,64,64
8,64,72
8,64,80
8,64,88
8,64,96
8,64,104
8,64,112
8,64,120
8,64,128
8,64,136
8,64,144
8,64,152
8,64,160
8,64,168
8,68,8
8,68,16
8,68,24
8,68,32
8,68,40
8,68,48
8,68,56
8,68,64
8,68,68
8,68,72
8,68,80
8,68,88
8,68,96
8,68,104
8,68,112
8,68,120
8,68,128
8,68,136
8,68,144
8,68,152
8,68,160
8,72,8
8,72,16
8,72,24
8,72,32
8,72,40
8,72,48
8,72,56
8,72,64
8,72,72
8,72,80
8,72,88
8,72,96
8,72,104
8,72,112
8,72,120
8,72,128
8,72,136
8,72,144
8,72,152
8,76,8
8,76,16
8,76,24
8,76,32
8,76,40
8,76,48
8,76,56
8,76,64
8,76,72
8,76,76
8,76,80
8,76,88
8,76,96
8,76,104
8,76,112
8,76,120
8,76,128
8,76,136
8,76,144
8,80,8
8,80,16
8,80,24
8,80,32
8,80,40
8,80,48
8,80,56
8,80,64
8,80,72
8,80,80
8,80,88
8,80,96
8,80,104
8,80,112
8,80,120
8,80,128
8,80,136
8,84,8
8,84,16
8,84,24
8,84,32
8,84,40
8,84,48
8,84,56
8,84,64
8,84,72
8,84,80
8,84,84
8,84,88
8,84,96
8,84,104
8,84,112
8,84,120
8,84,128
8,88,8
8,88,16
8,88,24
8,88,32
8,88,40
8,88,48
8,88,56
8,88,64
8,88,72
8,88,80
8,88,88
8,88,96
8,88,104
8,88,112
8,88,120
8,88,128
8,92,8
8,92,16
8,92,24
8,92,32
8,92,40
8,92,48
8,92,56
8,92,64
8,92,72
8,92,80
8,92,88
8,92,92
8,92,96
8,92,104
8,92,112
8,92,120
8,96,8
8,96,16
8,96,24
8,96,32
8,96,40
8,96,48
8,96,56
8,96,64
8,96,72
8,96,80
8,96,88
8,96,96
8,96,104
8,96,112
8,100,8
8,100,16
8,100,24
8,100,32
8,100,40
8,100,48
8,100,56
8,100,64
8,100,72
8,100,80
8,100,88
8,100,96
8,100,100
8,100,104
8,100,112
8,104,8
8,104,16
8,104,24
8,104,32
8,104,40
8,104,48
8,104,56
8,104,64
8,104,72
8,104,80
8,104,88
8,104,96
8,104,104
8,108,8
8,108,16
8,108,24
8,108,32
8,108,40
8,108,48
8,108,56
8,108,64
8,108,72
8,108,80
8,108,88
8,108,96
8,108,104
8,112,8
8,112,16
8,112,24
8,112,32
8,112,40
8,112,48
8,112,56
8,112,64
8,112,72
8,112,80
8,112,88
8,112,96
8,116,8
8,116,16
8,116,24
8,116,32
8,116,40
8,116,48
8,116,56
8,116,64
8,116,72
8,116,80
8,116,88
8,116,96
8,120,8
8,120,16
8,120,24
8,120,32
8,120,40
8,120,48
8,120,56
8,120,64
8,120,72
8,120,80
8,120,88
8,120,96
8,124,8
8,124,16
8,124,24
8,124,32
8,124,40
8,124,48
8,124,56
8,124,64
8,124,72
8,124,80
8,124,88
8,128,8
8,128,16
8,128,24
8,128,32
8,128,40
8,128,48
8,128,56
8,128,64
8,128,72
8,128,80
8,128,88
9,32,9
9,32,18
9,32,27
9,32,32
9,32,36
9,32,45
9,32,54
9,32,63
9,32,64
9,32,72
9,32,81
9,32,90
9,32,96
9,32,99
9,32,108
9,32,117
9,32,126
9,32,128
9,32,135
9,32,144
9,32,153
9,32,160
9,32,162
9,32,171
9,32,180
9,32,189
9,32,192
9,32,198
9,32,207
9,32,216
9,32,224
9,32,225
9,32,234
9,32,243
9,32,252
9,32,256
9,32,261
9,32,270
9,32,279
9,32,288
9,32,297
9,64,9
9,64,18
9,64,27
9,64,36
9,64,45
9,64,54
9,64,63
9,64,64
9,64,72
9,64,81
9,64,90
9,64,99
9,64,108
9,64,117
9,64,126
9,64,128
9,64,135
9,64,144
9,64,153
9,64,162
9,96,9
9,96,18
9,96,27
9,96,36
9,96,45
9,96,54
9,96,63
9,96,72
9,96,81
9,96,90
9,96,96
9,96,99
9,96,108
9,96,117
10,16,10
10,16,16
10,16,20
10,16,30
10,16,32
10,16,40
10,16,48
10,16,50
10,16,60
10,16,64
10,16,70
10,16,80
10,16,90
10,16,96
10,16,100
10,16,110
10,16,112
10,16,120
10,16,128
10,16,130
10,16,140
10,16,144
10,16,150
10,16,160
10,16,170
10,16,176
10,16,180
10,16,190
10,16,192
10,16,200
10,16,208
10,16,210
10,16,220
10,16,224
10,16,230
10,16,240
10,16,250
10,16,256
10,16,260
10,16,270
10,16,272
10,16,280
10,16,288
10,16,290
10,16,300
10,16,304
10,16,310
10,16,320
10,16,330
10,16,336
10,16,340
10,16,350
10,16,352
10,16,360
10,16,368
10,16,370
10,16,380
10,16,384
10,16,390
10,16,400
10,16,410
10,16,416
10,16,420
10,16,430
10,16,432
10,16,440
10,16,448
10,16,450
10,16,460
10,16,464
10,16,470
10,32,10
10,32,20
10,32,30
10,32,32
10,32,40
10,32,50
10,32,60
10,32,64
10,32,70
10,32,80
10,32,90
10,32,96
10,32,100
10,32,110
10,32,120
10,32,128
10,32,130
10,32,140
10,32,150
10,32,160
10,32,170
10,32,180
10,32,190
10,32,192
10,32,200
10,32,210
10,32,220
10,32,224
10,32,230
10,32,240
10,32,250
10,32,256
10,32,260
10,32,270
10,32,280
10,32,288
10,32,290
10,48,10
10,48,20
10,48,30
10,48,40
10,48,48
10,48,50
10,48,60
10,48,70
10,48,80
10,48,90
10,48,96
10,48,100
10,48,110
10,48,120
10,48,130
10,48,140
10,48,144
10,48,150
10,48,160
10,48,170
10,48,180
10,48,190
10,48,192
10,48,200
10,48,210
10,64,10
10,64,20
10,64,30
10,64,40
10,64,50
10,64,60
10,64,64
10,64,70
10,64,80
10,64,90
10,64,100
10,64,110
10,64,120
10,64,128
10,64,130
10,64,140
10,64,150
10,64,160
10,80,10
10,80,20
10,80,30
10,80,40
10,80,50
10,80,60
10,80,70
10,80,80
10,80,90
10,80,100
10,80,110
10,80,120
10,80,130
10,96,10
10,96,20
10,96,30
10,96,40
10,96,50
10,96,60
10,96,70
10,96,80
10,96,90
10,96,96
10,96,100
10,96,110
11,32,11
11,32,22
11,32,32
11,32,33
11,32,44
11,32,55
11,32,64
11,32,66
11,32,77
11,32,88
11,32,96
11,32,99
11,32,110
11,32,121
11,32,128
11,32,132
11,32,143
11,32,154
11,32,160
11,32,165
11,32,176
11,32,187
11,32,192
11,32,198
11,32,209
11,32,220
11,32,224
11,32,231
11,32,242
11,32,253
11,32,256
11,32,264
11,32,275
11,64,11
11,64,22
11,64,33
11,64,44
11,64,55
11,64,64
11,64,66
11,64,77
11,64,88
11,64,99
11,64,110
11,64,121
11,64,128
11,64,132
11,64,143
11,64,154
12,8,8
12,8,12
12,8,16
12,8,24
12,8,32
12,8,36
12,8,40
12,8,48
12,8,56
12,8,60
12,8,64
12,8,72
12,8,80
12,8,84
12,8,88
12,8,96
12,8,104
12,8,108
12,8,112
12,8,120
12,8,128
12,8,132
12,8,136
12,8,144
12,8,152
12,8,156
12,8,160
12,8,168
12,8,176
12,8,180
12,8,184
12,8,192
12,8,200
12,8,204
12,8,208
12,8,216
12,8,224
12,8,228
12,8,232
12,8,240
12,8,248
12,8,252
12,8,256
12,8,264
12,8,272
12,8,276
12,8,280
12,8,288
12,8,296
12,8,300
12,8,304
12,8,312
12,8,320
12,8,324
12,8,328
12,8,336
12,8,344
12,8,348
12,8,352
12,8,360
12,8,368
12,8,372
12,8,376
12,8,384
12,8,392
12,8,396
12,8,400
12,8,408
12,8,416
12,8,420
12,8,424
12,8,432
12,8,440
12,8,444
12,8,448
12,8,456
12,8,464
12,8,468
12,8,472
12,8,480
12,8,488
12,8,492
12,8,496
12,8,504
12,8,512
12,8,516
12,8,520
12,8,528
12,8,536
12,8,540
12,8,544
12,8,552
12,8,560
12,8,564
12,8,568
12,8,576
12,8,584
12,8,588
12,8,592
12,8,600
12,8,608
12,8,612
12,16,12
12,16,16
12,16,24
12,16,32
12,16,36
12,16,48
12,16,60
12,16,64
12,16,72
12,16,80
12,16,84
12,16,96
12,16,108
12,16,112
12,16,120
12,16,128
12,16,132
12,16,144
12,16,156
12,16,160
12,16,168
12,16,176
12,16,180
12,16,192
12,16,204
12,16,208
12,16,216
12,16,224
12,16,228
12,16,240
12,16,252
12,16,256
12,16,264
12,16,272
12,16,276
12,16,288
12,16,300
12,16,304
12,16,312
12,16,320
12,16,324
12,16,336
12,16,348
12,16,352
12,16,360
12,16,368
12,16,372
12,16,384
12,16,396
12,16,400
12,16,408
12,16,416
12,16,420
12,16,432
12,24,12
12,24,24
12,24,36
12,24,48
12,24,60
12,24,72
12,24,84
12,24,96
12,24,108
12,24,120
12,24,132
12,24,144
12,24,156
12,24,168
12,24,180
12,24,192
12,24,204
12,24,216
12,24,228
12,24,240
12,24,252
12,24,264
12,24,276
12,24,288
12,24,300
12,24,312
12,24,324
12,24,336
12,32,12
12,32,24
12,32,32
12,32,36
12,32,48
12,32,60
12,32,64
12,32,72
12,32,84
12,32,96
12,32,108
12,32,120
12,32,128
12,32,132
12,32,144
12,32,156
12,32,160
12,32,168
12,32,180
12,32,192
12,32,204
12,32,216
12,32,224
12,32,228
12,32,240
12,32,252
12,32,256
12,32,264
12,32,276
12,40,12
12,40,24
12,40,36
12,40,40
12,40,48
12,40,60
12,40,72
12,40,80
12,40,84
12,40,96
12,40,108
12,40,120
12,40,132
12,40,144
12,40,156
12,40,160
12,40,168
12,40,180
12,40,192
12,40,200
12,40,204
12,40,216
12,40,228
12,48,12
12,48,24
12,48,36
12,48,48
12,48,60
12,48,72
12,48,84
12,48,96
12,48,108
12,48,120
12,48,132
12,48,144
12,48,156
12,48,168
12,48,180
12,48,192
12,48,204
12,56,12
12,56,24
12,56,36
12,56,48
12,56,56
12,56,60
12,56,72
12,56,84
12,56,96
12,56,108
12,56,112
12,56,120
12,56,132
12,56,144
12,56,156
12,56,168
12,56,180
12,64,12
12,64,24
12,64,36
12,64,48
12,64,60
12,64,64
12,64,72
12,64,84
12,64,96
12,64,108
12,64,120
12,64,128
12,64,132
12,64,144
12,64,156
12,72,12
12,72,24
12,72,36
12,72,48
12,72,60
12,72,72
12,72,84
12,72,96
12,72,108
12,72,120
12,72,132
12,72,144
12,80,12
12,80,24
12,80,36
12,80,48
12,80,60
12,80,72
12,80,80
12,80,84
12,80,96
12,80,108
12,80,120
12,80,132
13,32,13
13,32,26
13,32,32
13,32,39
13,32,52
13,32,64
13,32,65
13,32,78
13,32,91
13,32,96
13,32,104
13,32,117
13,32,128
13,32,130
13,32,143
13,32,156
13,32,160
13,32,169
13,32,182
13,32,192
13,32,195
13,32,208
13,32,221
13,32,224
13,32,234
13,32,247
13,32,256
13,32,260
13,32,273
13,64,13
13,64,26
13,64,39
13,64,52
13,64,64
13,64,65
13,64,78
13,64,91
13,64,104
13,64,117
13,64,128
13,64,130
13,64,143
13,64,156
14,16,14
14,16,16
14,16,28
14,16,32
14,16,42
14,16,48
14,16,56
14,16,64
14,16,70
14,16,80
14,16,84
14,16,96
14,16,98
14,16,112
14,16,126
14,16,128
14,16,140
14,16,144
14,16,154
14,16,160
14,16,168
14,16,176
14,16,182
14,16,192
14,16,196
14,16,208
14,16,210
14,16,224
14,16,238
14,16,240
14,16,252
14,16,256
14,16,266
14,16,272
14,16,280
14,16,288
14,16,294
14,16,304
14,16,308
14,16,320
14,16,322
14,16,336
14,16,350
14,16,352
14,16,364
14,16,368
14,16,378
14,16,384
14,16,392
14,16,400
14,16,406
14,32,14
14,32,28
14,32,32
14,32,42
14,32,56
14,32,64
14,32,70
14,32,84
14,32,96
14,32,98
14,32,112
14,32,126
14,32,128
14,32,140
14,32,154
14,32,160
14,32,168
14,32,182
14,32,192
14,32,196
14,32,210
14,32,224
14,32,238
14,32,252
14,32,256
14,32,266
14,48,14
14,48,28
14,48,42
14,48,48
14,48,56
14,48,70
14,48,84
14,48,96
14,48,98
14,48,112
14,48,126
14,48,140
14,48,144
14,48,154
14,48,168
14,48,182
14,48,192
14,48,196
14,64,14
14,64,28
14,64,42
14,64,56
14,64,64
14,64,70
14,64,84
14,64,98
14,64,112
14,64,126
14,64,128
14,64,140
14,64,154
15,32,15
15,32,30
15,32,32
15,32,45
15,32,60
15,32,64
15,32,75
15,32,90
15,32,96
15,32,105
15,32,120
15,32,128
15,32,135
15,32,150
15,32,160
15,32,165
15,32,180
15,32,192
15,32,195
15,32,210
15,32,224
15,32,225
15,32,240
15,32,255
15,32,256
15,64,15
15,64,30
15,64,45
15,64,60
15,64,64
15,64,75
15,64,90
15,64,105
15,64,120
15,64,128
15,64,135
15,64,150
16,2,2
16,2,4
16,2,6
16,2,8
16,2,10
16,2,12
16,2,14
16,2,16
16,2,18
16,2,20
16,2,22
16,2,24
16,2,26
16,2,28
16,2,30
16,2,32
16,2,34
16,2,36
16,2,38
16,2,40
16,2,42
16,2,44
16,2,46
16,2,48
16,2,50
16,2,52
16,2,54
16,2,56
16,2,58
16,2,60
16,2,62
16,2,64
16,2,66
16,2,68
16,2,70
16,2,72
16,2,74
16,2,76
16,2,78
16,2,80
16,2,82
16,2,84
16,2,86
16,2,88
16,2,90
16,2,92
16,2,94
16,2,96
16,2,98
16,2,100
16,2,102
16,2,104
16,2,106
16,2,108
16,2,110
16,2,112
16,2,114
16,2,116
16,2,118
16,2,120
16,2,122
16,2,124
16,2,126
16,2,128
16,2,130
16,2,132
16,2,134
16,2,136
16,2,138
16,2,140
16,2,142
16,2,144
16,2,146
16,2,148
16,2,150
16,2,152
16,2,154
16,2,156
16,2,158
16,2,160
16,2,162
16,2,164
16,2,166
16,2,168
16,2,170
16,2,172
16,2,174
16,2,176
16,2,178
16,2,180
16,2,182
16,2,184
16,2,186
16,2,188
16,2,190
16,2,192
16,2,194
16,2,196
16,2,198
16,2,200
16,2,202
16,2,204
16,2,206
16,2,208
16,2,210
16,2,212
16,2,214
16,2,216
16,2,218
16,2,220
16,2,222
16,2,224
16,2,226
16,2,228
16,2,230
16,2,232
16,2,234
16,2,236
16,2,238
16,2,240
16,2,242
16,2,244
16,2,246
16,2,248
16,2,250
16,2,252
16,2,254
16,2,256
16,2,258
16,2,260
16,2,262
16,2,264
16,2,266
16,2,268
16,2,270
16,2,272
16,2,274
16,2,276
16,2,278
16,2,280
16,2,282
16,2,284
16,2,286
16,2,288
16,2,290
16,2,292
16,2,294
16,2,296
16,2,298
16,2,300
16,2,302
16,2,304
16,2,306
16,2,308
16,2,310
16,2,312
16,2,314
16,2,316
16,2,318
16,2,320
16,2,322
16,2,324
16,2,326
16,2,328
16,2,330
16,2,332
16,2,334
16,2,336
16,2,338
16,2,340
16,2,342
16,2,344
16,2,346
16,2,348
16,2,350
16,2,352
16,2,354
16,2,356
16,2,358
16,2,360
16,2,362
16,2,364
16,2,366
16,2,368
16,2,370
16,2,372
16,2,374
16,2,376
16,2,378
16,2,380
16,2,382
16,2,384
16,2,386
16,2,388
16,2,390
16,2,392
16,2,394
16,2,396
16,2,398
16,2,400
16,2,402
16,2,404
16,2,406
16,2,408
16,2,410
16,2,412
16,2,414
16,2,416
16,2,418
16,2,420
16,2,422
16,2,424
16,2,426
16,2,428
16,2,430
16,2,432
16,2,434
16,2,436
16,2,438
16,2,440
16,2,442
16,2,444
16,2,446
16,2,448
16,2,450
16,2,452
16,2,454
16,2,456
16,2,458
16,2,460
16,2,462
16,2,464
16,2,466
16,2,468
16,2,470
16,2,472
16,2,474
16,2,476
16,2,478
16,2,480
16,2,482
16,2,484
16,2,486
16,2,488
16,2,490
16,2,492
16,2,494
16,2,496
16,2,498
16,2,500
16,2,502
16,2,504
16,2,506
16,2,508
16,2,510
16,2,512
16,2,514
16,2,516
16,2,518
16,2,520
16,2,522
16,2,524
16,2,526
16,2,528
16,2,530
16,2,532
16,2,534
16,2,536
16,2,538
16,2,540
16,2,542
16,2,544
16,2,546
16,2,548
16,2,550
16,2,552
16,2,554
16,2,556
16,2,558
16,2,560
16,2,562
16,2,564
16,2,566
16,2,568
16,2,570
16,2,572
16,2,574
16,2,576
16,2,578
16,2,580
16,2,582
16,2,584
16,2,586
16,2,588
16,2,590
16,2,592
16,2,594
16,2,596
16,2,598
16,2,600
16,2,602
16,2,604
16,2,606
16,2,608
16,2,610
16,2,612
16,2,614
16,2,616
16,2,618
16,2,620
16,2,622
16,2,624
16,2,626
16,2,628
16,2,630
16,2,632
16,2,634
16,2,636
16,2,638
16,2,640
16,2,642
16,2,644
16,2,646
16,2,648
16,2,650
16,2,652
16,2,654
16,2,656
16,2,658
16,2,660
16,2,662
16,2,664
16,2,666
16,2,668
16,2,670
16,2,672
16,2,674
16,2,676
16,2,678
16,2,680
16,2,682
16,4,4
16,4,8
16,4,12
16,4,16
16,4,20
16,4,24
16,4,28
16,4,32
16,4,36
16,4,40
16,4,44
16,4,48
16,4,52
16,4,56
16,4,60
16,4,64
16,4,68
16,4,72
16,4,76
16,4,80
16,4,84
16,4,88
16,4,92
16,4,96
16,4,100
16,4,104
16,4,108
16,4,112
16,4,116
16,4,120
16,4,124
16,4,128
16,4,132
16,4,136
16,4,140
16,4,144
16,4,148
16,4,152
16,4,156
16,4,160
16,4,164
16,4,168
16,4,172
16,4,176
16,4,180
16,4,184
16,4,188
16,4,192
16,4,196
16,4,200
16,4,204
16,4,208
16,4,212
16,4,216
16,4,220
16,4,224
16,4,228
16,4,232
16,4,236
16,4,240
16,4,244
16,4,248
16,4,252
16,4,256
16,4,260
16,4,264
16,4,268
16,4,272
16,4,276
16,4,280
16,4,284
16,4,288
16,4,292
16,4,296
16,4,300
16,4,304
16,4,308
16,4,312
16,4,316
16,4,320
16,4,324
16,4,328
16,4,332
16,4,336
16,4,340
16,4,344
16,4,348
16,4,352
16,4,356
16,4,360
16,4,364
16,4,368
16,4,372
16,4,376
16,4,380
16,4,384
16,4,388
16,4,392
16,4,396
16,4,400
16,4,404
16,4,408
16,4,412
16,4,416
16,4,420
16,4,424
16,4,428
16,4,432
16,4,436
16,4,440
16,4,444
16,4,448
16,4,452
16,4,456
16,4,460
16,4,464
16,4,468
16,4,472
16,4,476
16,4,480
16,4,484
16,4,488
16,4,492
16,4,496
16,4,500
16,4,504
16,4,508
16,4,512
16,4,516
16,4,520
16,4,524
16,4,528
16,4,532
16,4,536
16,4,540
16,4,544
16,4,548
16,4,552
16,4,556
16,4,560
16,4,564
16,4,568
16,4,572
16,4,576
16,4,580
16,4,584
16,4,588
16,4,592
16,4,596
16,4,600
16,4,604
16,4,608
16,4,612
16,6,6
16,6,12
16,6,16
16,6,18
16,6,24
16,6,30
16,6,32
16,6,36
16,6,42
16,6,48
16,6,54
16,6,60
16,6,64
16,6,66
16,6,72
16,6,78
16,6,80
16,6,84
16,6,90
16,6,96
16,6,102
16,6,108
16,6,112
16,6,114
16,6,120
16,6,126
16,6,128
16,6,132
16,6,138
16,6,144
16,6,150
16,6,156
16,6,160
16,6,162
16,6,168
16,6,174
16,6,176
16,6,180
16,6,186
16,6,192
16,6,198
16,6,204
16,6,208
16,6,210
16,6,216
16,6,222
16,6,224
16,6,228
16,6,234
16,6,240
16,6,246
16,6,252
16,6,256
16,6,258
16,6,264
16,6,270
16,6,272
16,6,276
16,6,282
16,6,288
16,6,294
16,6,300
16,6,304
16,6,306
16,6,312
16,6,318
16,6,320
16,6,324
16,6,330
16,6,336
16,6,342
16,6,348
16,6,352
16,6,354
16,6,360
16,6,366
16,6,368
16,6,372
16,6,378
16,6,384
16,6,390
16,6,396
16,6,400
16,6,402
16,6,408
16,6,414
16,6,416
16,6,420
16,6,426
16,6,432
16,6,438
16,6,444
16,6,448
16,6,450
16,6,456
16,6,462
16,6,464
16,6,468
16,6,474
16,6,480
16,6,486
16,6,492
16,6,496
16,6,498
16,6,504
16,6,510
16,6,512
16,6,516
16,6,522
16,6,528
16,6,534
16,6,540
16,6,544
16,6,546
16,6,552
16,6,558
16,8,8
16,8,16
16,8,24
16,8,32
16,8,40
16,8,48
16,8,56
16,8,64
16,8,72
16,8,80
16,8,88
16,8,96
16,8,104
16,8,112
16,8,120
16,8,128
16,8,136
16,8,144
16,8,152
16,8,160
16,8,168
16,8,176
16,8,184
16,8,192
16,8,200
16,8,208
16,8,216
16,8,224
16,8,232
16,8,240
16,8,248
16,8,256
16,8,264
16,8,272
16,8,280
16,8,288
16,8,296
16,8,304
16,8,312
16,8,320
16,8,328
16,8,336
16,8,344
16,8,352
16,8,360
16,8,368
16,8,376
16,8,384
16,8,392
16,8,400
16,8,408
16,8,416
16,8,424
16,8,432
16,8,440
16,8,448
16,8,456
16,8,464
16,8,472
16,8,480
16,8,488
16,8,496
16,8,504
16,8,512
16,10,10
16,10,16
16,10,20
16,10,30
16,10,32
16,10,40
16,10,48
16,10,50
16,10,60
16,10,64
16,10,70
16,10,80
16,10,90
16,10,96
16,10,100
16,10,110
16,10,112
16,10,120
16,10,128
16,10,130
16,10,140
16,10,144
16,10,150
16,10,160
16,10,170
16,10,176
16,10,180
16,10,190
16,10,192
16,10,200
16,10,208
16,10,210
16,10,220
16,10,224
16,10,230
16,10,240
16,10,250
16,10,256
16,10,260
16,10,270
16,10,272
16,10,280
16,10,288
16,10,290
16,10,300
16,10,304
16,10,310
16,10,320
16,10,330
16,10,336
16,10,340
16,10,350
16,10,352
16,10,360
16,10,368
16,10,370
16,10,380
16,10,384
16,10,390
16,10,400
16,10,410
16,10,416
16,10,420
16,10,430
16,10,432
16,10,440
16,10,448
16,10,450
16,10,460
16,10,464
16,10,470
16,12,12
16,12,16
16,12,24
16,12,32
16,12,36
16,12,48
16,12,60
16,12,64
16,12,72
16,12,80
16,12,84
16,12,96
16,12,108
16,12,112
16,12,120
16,12,128
16,12,132
16,12,144
16,12,156
16,12,160
16,12,168
16,12,176
16,12,180
16,12,192
16,12,204
16,12,208
16,12,216
16,12,224
16,12,228
16,12,240
16,12,252
16,12,256
16,12,264
16,12,272
16,12,276
16,12,288
16,12,300
16,12,304
16,12,312
16,12,320
16,12,324
16,12,336
16,12,348
16,12,352
16,12,360
16,12,368
16,12,372
16,12,384
16,12,396
16,12,400
16,12,408
16,12,416
16,12,420
16,12,432
16,14,14
16,14,16
16,14,28
16,14,32
16,14,42
16,14,48
16,14,56
16,14,64
16,14,70
16,14,80
16,14,84
16,14,96
16,14,98
16,14,112
16,14,126
16,14,128
16,14,140
16,14,144
16,14,154
16,14,160
16,14,168
16,14,176
16,14,182
16,14,192
16,14,196
16,14,208
16,14,210
16,14,224
16,14,238
16,14,240
16,14,252
16,14,256
16,14,266
16,14,272
16,14,280
16,14,288
16,14,294
16,14,304
16,14,308
16,14,320
16,14,322
16,14,336
16,14,350
16,14,352
16,14,364
16,14,368
16,14,378
16,14,384
16,14,392
16,14,400
16,14,406
16,16,16
16,16,32
16,16,48
16,16,64
16,16,80
16,16,96
16,16,112
16,16,128
16,16,144
16,16,160
16,16,176
16,16,192
16,16,208
16,16,224
16,16,240
16,16,256
16,16,272
16,16,288
16,16,304
16,16,320
16,16,336
16,16,352
16,16,368
16,16,384
16,18,16
16,18,18
16,18,32
16,18,36
16,18,48
16,18,54
16,18,64
16,18,72
16,18,80
16,18,90
16,18,96
16,18,108
16,18,112
16,18,126
16,18,128
16,18,144
16,18,160
16,18,162
16,18,176
16,18,180
16,18,192
16,18,198
16,18,208
16,18,216
16,18,224
16,18,234
16,18,240
16,18,252
16,18,256
16,18,270
16,18,272
16,18,288
16,18,304
16,18,306
16,18,320
16,18,324
16,18,336
16,18,342
16,18,352
16,18,360
16,20,16
16,20,20
16,20,32
16,20,40
16,20,48
16,20,60
16,20,64
16,20,80
16,20,96
16,20,100
16,20,112
16,20,120
16,20,128
16,20,140
16,20,144
16,20,160
16,20,176
16,20,180
16,20,192
16,20,200
16,20,208
16,20,220
16,20,224
16,20,240
16,20,256
16,20,260
16,20,272
16,20,280
16,20,288
16,20,300
16,20,304
16,20,320
16,20,336
16,20,340
16,22,16
16,22,22
16,22,32
16,22,44
16,22,48
16,22,64
16,22,66
16,22,80
16,22,88
16,22,96
16,22,110
16,22,112
16,22,128
16,22,132
16,22,144
16,22,154
16,22,160
16,22,176
16,22,192
16,22,198
16,22,208
16,22,220
16,22,224
16,22,240
16,22,242
16,22,256
16,22,264
16,22,272
16,22,286
16,22,288
16,22,304
16,22,308
16,22,320
16,24,16
16,24,24
16,24,32
16,24,48
16,24,64
16,24,72
16,24,80
16,24,96
16,24,112
16,24,120
16,24,128
16,24,144
16,24,160
16,24,168
16,24,176
16,24,192
16,24,208
16,24,216
16,24,224
16,24,240
16,24,256
16,24,264
16,24,272
16,24,288
16,24,304
16,26,16
16,26,26
16,26,32
16,26,48
16,26,52
16,26,64
16,26,78
16,26,80
16,26,96
16,26,104
16,26,112
16,26,128
16,26,130
16,26,144
16,26,156
16,26,160
16,26,176
16,26,182
16,26,192
16,26,208
16,26,224
16,26,234
16,26,240
16,26,256
16,26,260
16,26,272
16,26,286
16,26,288
16,28,16
16,28,28
16,28,32
16,28,48
16,28,56
16,28,64
16,28,80
16,28,84
16,28,96
16,28,112
16,28,128
16,28,140
16,28,144
16,28,160
16,28,168
16,28,176
16,28,192
16,28,196
16,28,208
16,28,224
16,28,240
16,28,252
16,28,256
16,28,272
16,30,16
16,30,30
16,30,32
16,30,48
16,30,60
16,30,64
16,30,80
16,30,90
16,30,96
16,30,112
16,30,120
16,30,128
16,30,144
16,30,150
16,30,160
16,30,176
16,30,180
16,30,192
16,30,208
16,30,210
16,30,224
16,30,240
16,30,256
16,32,16
16,32,32
16,32,48
16,32,64
16,32,80
16,32,96
16,32,112
16,32,128
16,32,144
16,32,160
16,32,176
16,32,192
16,32,208
16,32,224
16,32,240
16,32,256
16,34,16
16,34,32
16,34,34
16,34,48
16,34,64
16,34,68
16,34,80
16,34,96
16,34,102
16,34,112
16,34,128
16,34,136
16,34,144
16,34,160
16,34,170
16,34,176
16,34,192
16,34,204
16,34,208
16,34,224
16,34,238
16,34,240
16,36,16
16,36,32
16,36,36
16,36,48
16,36,64
16,36,72
16,36,80
16,36,96
16,36,108
16,36,112
16,36,128
16,36,144
16,36,160
16,36,176
16,36,180
16,36,192
16,36,208
16,36,216
16,36,224
16,38,16
16,38,32
16,38,38
16,38,48
16,38,64
16,38,76
16,38,80
16,38,96
16,38,112
16,38,114
16,38,128
16,38,144
16,38,152
16,38,160
16,38,176
16,38,190
16,38,192
16,38,208
16,38,224
16,40,16
16,40,32
16,40,40
16,40,48
16,40,64
16,40,80
16,40,96
16,40,112
16,40,120
16,40,128
16,40,144
16,40,160
16,40,176
16,40,192
16,40,200
16,40,208
16,42,16
16,42,32
16,42,42
16,42,48
16,42,64
16,42,80
16,42,84
16,42,96
16,42,112
16,42,126
16,42,128
16,42,144
16,42,160
16,42,168
16,42,176
16,42,192
16,42,208
16,42,210
16,44,16
16,44,32
16,44,44
16,44,48
16,44,64
16,44,80
16,44,88
16,44,96
16,44,112
16,44,128
16,44,132
16,44,144
16,44,160
16,44,176
16,44,192
16,46,16
16,46,32
16,46,46
16,46,48
16,46,64
16,46,80
16,46,92
16,46,96
16,46,112
16,46,128
16,46,138
16,46,144
16,46,160
16,46,176
16,46,184
16,46,192
16,48,16
16,48,32
16,48,48
16,48,64
16,48,80
16,48,96
16,48,112
16,48,128
16,48,144
16,48,160
16,48,176
16,48,192
16,50,16
16,50,32
16,50,48
16,50,50
16,50,64
16,50,80
16,50,96
16,50,100
16,50,112
16,50,128
16,50,144
16,50,150
16,50,160
16,50,176
16,52,16
16,52,32
16,52,48
16,52,52
16,52,64
16,52,80
16,52,96
16,52,104
16,52,112
16,52,128
16,52,144
16,52,156
16,52,160
16,52,176
16,54,16
16,54,32
16,54,48
16,54,54
16,54,64
16,54,80
16,54,96
16,54,108
16,54,112
16,54,128
16,54,144
16,54,160
16,54,162
16,56,16
16,56,32
16,56,48
16,56,56
16,56,64
16,56,80
16,56,96
16,56,112
16,56,128
16,56,144
16,56,160
16,56,168
16,58,16
16,58,32
16,58,48
16,58,58
16,58,64
16,58,80
16,58,96
16,58,112
16,58,116
16,58,128
16,58,144
16,58,160
16,60,16
16,60,32
16,60,48
16,60,60
16,60,64
16,60,80
16,60,96
16,60,112
16,60,120
16,60,128
16,60,144
16,60,160
16,62,16
16,62,32
16,62,48
16,62,62
16,62,64
16,62,80
16,62,96
16,62,112
16,62,124
16,62,128
16,62,144
16,64,16
16,64,32
16,64,48
16,64,64
16,64,80
16,64,96
16,64,112
16,64,128
16,64,144
17,32,17
17,32,32
17,32,34
17,32,51
17,32,64
17,32,68
17,32,85
17,32,96
17,32,102
17,32,119
17,32,128
17,32,136
17,32,153
17,32,160
17,32,170
17,32,187
17,32,192
17,32,204
17,32,221
17,32,224
17,32,238
18,16,16
18,16,18
18,16,32
18,16,36
18,16,48
18,16,54
18,16,64
18,16,72
18,16,80
18,16,90
18,16,96
18,16,108
18,16,112
18,16,126
18,16,128
18,16,144
18,16,160
18,16,162
18,16,176
18,16,180
18,16,192
18,16,198
18,16,208
18,16,216
18,16,224
18,16,234
18,16,240
18,16,252
18,16,256
18,16,270
18,16,272
18,16,288
18,16,304
18,16,306
18,16,320
18,16,324
18,16,336
18,16,342
18,16,352
18,16,360
18,32,18
18,32,32
18,32,36
18,32,54
18,32,64
18,32,72
18,32,90
18,32,96
18,32,108
18,32,126
18,32,128
18,32,144
18,32,160
18,32,162
18,32,180
18,32,192
18,32,198
18,32,216
18,32,224
18,32,234
18,48,18
18,48,36
18,48,48
18,48,54
18,48,72
18,48,90
18,48,96
18,48,108
18,48,126
18,48,144
18,48,162
18,48,180
19,32,19
19,32,32
19,32,38
19,32,57
19,32,64
19,32,76
19,32,95
19,32,96
19,32,114
19,32,128
19,32,133
19,32,152
19,32,160
19,32,171
19,32,190
19,32,192
19,32,209
19,32,224
19,32,228
20,8,8
20,8,16
20,8,20
20,8,24
20,8,32
20,8,40
20,8,48
20,8,56
20,8,60
20,8,64
20,8,72
20,8,80
20,8,88
20,8,96
20,8,100
20,8,104
20,8,112
20,8,120
20,8,128
20,8,136
20,8,140
20,8,144
20,8,152
20,8,160
20,8,168
20,8,176
20,8,180
20,8,184
20,8,192
20,8,200
20,8,208
20,8,216
20,8,220
20,8,224
20,8,232
20,8,240
20,8,248
20,8,256
20,8,260
20,8,264
20,8,272
20,8,280
20,8,288
20,8,296
20,8,300
20,8,304
20,8,312
20,8,320
20,8,328
20,8,336
20,8,340
20,8,344
20,8,352
20,8,360
20,8,368
20,8,376
20,8,380
20,8,384
20,8,392
20,8,400
20,8,408
20,8,416
20,8,420
20,8,424
20,8,432
20,16,16
20,16,20
20,16,32
20,16,40
20,16,48
20,16,60
20,16,64
20,16,80
20,16,96
20,16,100
20,16,112
20,16,120
20,16,128
20,16,140
20,16,144
20,16,160
20,16,176
20,16,180
20,16,192
20,16,200
20,16,208
20,16,220
20,16,224
20,16,240
20,16,256
20,16,260
20,16,272
20,16,280
20,16,288
20,16,300
20,16,304
20,16,320
20,16,336
20,16,340
20,24,20
20,24,24
20,24,40
20,24,48
20,24,60
20,24,72
20,24,80
20,24,96
20,24,100
20,24,120
20,24,140
20,24,144
20,24,160
20,24,168
20,24,180
20,24,192
20,24,200
20,24,216
20,24,220
20,24,240
20,24,260
20,24,264
20,32,20
20,32,32
20,32,40
20,32,60
20,32,64
20,32,80
20,32,96
20,32,100
20,32,120
20,32,128
20,32,140
20,32,160
20,32,180
20,32,192
20,32,200
20,32,220
20,32,224
20,40,20
20,40,40
20,40,60
20,40,80
20,40,100
20,40,120
20,40,140
20,40,160
20,40,180
20,40,200
20,48,20
20,48,40
20,48,48
20,48,60
20,48,80
20,48,96
20,48,100
20,48,120
20,48,140
20,48,144
20,48,160
20,48,180
21,32,21
21,32,32
21,32,42
21,32,63
21,32,64
21,32,84
21,32,96
21,32,105
21,32,126
21,32,128
21,32,147
21,32,160
21,32,168
21,32,189
21,32,192
21,32,210
21,32,224
21,32,231
22,16,16
22,16,22
22,16,32
22,16,44
22,16,48
22,16,64
22,16,66
22,16,80
22,16,88
22,16,96
22,16,110
22,16,112
22,16,128
22,16,132
22,16,144
22,16,154
22,16,160
22,16,176
22,16,192
22,16,198
22,16,208
22,16,220
22,16,224
22,16,240
22,16,242
22,16,256
22,16,264
22,16,272
22,16,286
22,16,288
22,16,304
22,16,308
22,16,320
22,32,22
22,32,32
22,32,44
22,32,64
22,32,66
22,32,88
22,32,96
22,32,110
22,32,128
22,32,132
22,32,154
22,32,160
22,32,176
22,32,192
22,32,198
22,32,220
22,32,224
23,32,23
23,32,32
23,32,46
23,32,64
23,32,69
23,32,92
23,32,96
23,32,115
23,32,128
23,32,138
23,32,160
23,32,161
23,32,184
23,32,192
23,32,207
24,4,4
24,4,8
24,4,12
24,4,16
24,4,20
24,4,24
24,4,28
24,4,32
24,4,36
24,4,40
24,4,44
24,4,48
24,4,52
24,4,56
24,4,60
24,4,64
24,4,68
24,4,72
24,4,76
24,4,80
24,4,84
24,4,88
24,4,92
24,4,96
24,4,100
24,4,104
24,4,108
24,4,112
24,4,116
24,4,120
24,4,124
24,4,128
24,4,132
24,4,136
24,4,140
24,4,144
24,4,148
24,4,152
24,4,156
24,4,160
24,4,164
24,4,168
24,4,172
24,4,176
24,4,180
24,4,184
24,4,188
24,4,192
24,4,196
24,4,200
24,4,204
24,4,208
24,4,212
24,4,216
24,4,220
24,4,224
24,4,228
24,4,232
24,4,236
24,4,240
24,4,244
24,4,248
24,4,252
24,4,256
24,4,260
24,4,264
24,4,268
24,4,272
24,4,276
24,4,280
24,4,284
24,4,288
24,4,292
24,4,296
24,4,300
24,4,304
24,4,308
24,4,312
24,4,316
24,4,320
24,4,324
24,4,328
24,4,332
24,4,336
24,4,340
24,4,344
24,4,348
24,4,352
24,4,356
24,4,360
24,4,364
24,4,368
24,4,372
24,4,376
24,4,380
24,4,384
24,4,388
24,4,392
24,4,396
24,4,400
24,4,404
24,4,408
24,4,412
24,4,416
24,4,420
24,4,424
24,4,428
24,4,432
24,4,436
24,8,8
24,8,16
24,8,24
24,8,32
24,8,40
24,8,48
24,8,56
24,8,64
24,8,72
24,8,80
24,8,88
24,8,96
24,8,104
24,8,112
24,8,120
24,8,128
24,8,136
24,8,144
24,8,152
24,8,160
24,8,168
24,8,176
24,8,184
24,8,192
24,8,200
24,8,208
24,8,216
24,8,224
24,8,232
24,8,240
24,8,248
24,8,256
24,8,264
24,8,272
24,8,280
24,8,288
24,8,296
24,8,304
24,8,312
24,8,320
24,8,328
24,8,336
24,8,344
24,8,352
24,8,360
24,8,368
24,8,376
24,8,384
24,12,12
24,12,24
24,12,36
24,12,48
24,12,60
24,12,72
24,12,84
24,12,96
24,12,108
24,12,120
24,12,132
24,12,144
24,12,156
24,12,168
24,12,180
24,12,192
24,12,204
24,12,216
24,12,228
24,12,240
24,12,252
24,12,264
24,12,276
24,12,288
24,12,300
24,12,312
24,12,324
24,12,336
24,16,16
24,16,24
24,16,32
24,16,48
24,16,64
24,16,72
24,16,80
24,16,96
24,16,112
24,16,120
24,16,128
24,16,144
24,16,160
24,16,168
24,16,176
24,16,192
24,16,208
24,16,216
24,16,224
24,16,240
24,16,256
24,16,264
24,16,272
24,16,288
24,16,304
24,20,20
24,20,24
24,20,40
24,20,48
24,20,60
24,20,72
24,20,80
24,20,96
24,20,100
24,20,120
24,20,140
24,20,144
24,20,160
24,20,168
24,20,180
24,20,192
24,20,200
24,20,216
24,20,220
24,20,240
24,20,260
24,20,264
24,24,24
24,24,48
24,24,72
24,24,96
24,24,120
24,24,144
24,24,168
24,24,192
24,24,216
24,24,240
24,28,24
24,28,28
24,28,48
24,28,56
24,28,72
24,28,84
24,28,96
24,28,112
24,28,120
24,28,140
24,28,144
24,28,168
24,28,192
24,28,196
24,28,216
24,28,224
24,32,24
24,32,32
24,32,48
24,32,64
24,32,72
24,32,96
24,32,120
24,32,128
24,32,144
24,32,160
24,32,168
24,32,192
24,32,216
24,36,24
24,36,36
24,36,48
24,36,72
24,36,96
24,36,108
24,36,120
24,36,144
24,36,168
24,36,180
24,36,192
24,40,24
24,40,40
24,40,48
24,40,72
24,40,80
24,40,96
24,40,120
24,40,144
24,40,160
24,40,168
24,40,192
25,32,25
25,32,32
25,32,50
25,32,64
25,32,75
25,32,96
25,32,100
25,32,125
25,32,128
25,32,150
25,32,160
25,32,175
25,32,192
25,32,200
26,16,16
26,16,26
26,16,32
26,16,48
26,16,52
26,16,64
26,16,78
26,16,80
26,16,96
26,16,104
26,16,112
26,16,128
26,16,130
26,16,144
26,16,156
26,16,160
26,16,176
26,16,182
26,16,192
26,16,208
26,16,224
26,16,234
26,16,240
26,16,256
26,16,260
26,16,272
26,16,286
26,16,288
26,32,26
26,32,32
26,32,52
26,32,64
26,32,78
26,32,96
26,32,104
26,32,128
26,32,130
26,32,156
26,32,160
26,32,182
26,32,192
26,32,208
27,32,27
27,32,32
27,32,54
27,32,64
27,32,81
27,32,96
27,32,108
27,32,128
27,32,135
27,32,160
27,32,162
27,32,189
27,32,192
28,8,8
28,8,16
28,8,24
28,8,28
28,8,32
28,8,40
28,8,48
28,8,56
28,8,64
28,8,72
28,8,80
28,8,84
28,8,88
28,8,96
28,8,104
28,8,112
28,8,120
28,8,128
28,8,136
28,8,140
28,8,144
28,8,152
28,8,160
28,8,168
28,8,176
28,8,184
28,8,192
28,8,196
28,8,200
28,8,208
28,8,216
28,8,224
28,8,232
28,8,240
28,8,248
28,8,252
28,8,256
28,8,264
28,8,272
28,8,280
28,8,288
28,8,296
28,8,304
28,8,308
28,8,312
28,8,320
28,8,328
28,8,336
28,16,16
28,16,28
28,16,32
28,16,48
28,16,56
28,16,64
28,16,80
28,16,84
28,16,96
28,16,112
28,16,128
28,16,140
28,16,144
28,16,160
28,16,168
28,16,176
28,16,192
28,16,196
28,16,208
28,16,224
28,16,240
28,16,252
28,16,256
28,16,272
28,24,24
28,24,28
28,24,48
28,24,56
28,24,72
28,24,84
28,24,96
28,24,112
28,24,120
28,24,140
28,24,144
28,24,168
28,24,192
28,24,196
28,24,216
28,24,224
28,32,28
28,32,32
28,32,56
28,32,64
28,32,84
28,32,96
28,32,112
28,32,128
28,32,140
28,32,160
28,32,168
28,32,192
28,32,196
29,32,29
29,32,32
29,32,58
29,32,64
29,32,87
29,32,96
29,32,116
29,32,128
29,32,145
29,32,160
29,32,174
29,32,192
30,16,16
30,16,30
30,16,32
30,16,48
30,16,60
30,16,64
30,16,80
30,16,90
30,16,96
30,16,112
30,16,120
30,16,128
30,16,144
30,16,150
30,16,160
30,16,176
30,16,180
30,16,192
30,16,208
30,16,210
30,16,224
30,16,240
30,16,256
30,32,30
30,32,32
30,32,60
30,32,64
30,32,90
30,32,96
30,32,120
30,32,128
30,32,150
30,32,160
30,32,180
30,32,192
31,32,31
31,32,32
31,32,62
31,32,64
31,32,93
31,32,96
31,32,124
31,32,128
31,32,155
31,32,160
31,32,186
31,32,192
32,2,2
32,2,4
32,2,6
32,2,8
32,2,10
32,2,12
32,2,14
32,2,16
32,2,18
32,2,20
32,2,22
32,2,24
32,2,26
32,2,28
32,2,30
32,2,32
32,2,34
32,2,36
32,2,38
32,2,40
32,2,42
32,2,44
32,2,46
32,2,48
32,2,50
32,2,52
32,2,54
32,2,56
32,2,58
32,2,60
32,2,62
32,2,64
32,2,66
32,2,68
32,2,70
32,2,72
32,2,74
32,2,76
32,2,78
32,2,80
32,2,82
32,2,84
32,2,86
32,2,88
32,2,90
32,2,92
32,2,94
32,2,96
32,2,98
32,2,100
32,2,102
32,2,104
32,2,106
32,2,108
32,2,110
32,2,112
32,2,114
32,2,116
32,2,118
32,2,120
32,2,122
32,2,124
32,2,126
32,2,128
32,2,130
32,2,132
32,2,134
32,2,136
32,2,138
32,2,140
32,2,142
32,2,144
32,2,146
32,2,148
32,2,150
32,2,152
32,2,154
32,2,156
32,2,158
32,2,160
32,2,162
32,2,164
32,2,166
32,2,168
32,2,170
32,2,172
32,2,174
32,2,176
32,2,178
32,2,180
32,2,182
32,2,184
32,2,186
32,2,188
32,2,190
32,2,192
32,2,194
32,2,196
32,2,198
32,2,200
32,2,202
32,2,204
32,2,206
32,2,208
32,2,210
32,2,212
32,2,214
32,2,216
32,2,218
32,2,220
32,2,222
32,2,224
32,2,226
32,2,228
32,2,230
32,2,232
32,2,234
32,2,236
32,2,238
32,2,240
32,2,242
32,2,244
32,2,246
32,2,248
32,2,250
32,2,252
32,2,254
32,2,256
32,2,258
32,2,260
32,2,262
32,2,264
32,2,266
32,2,268
32,2,270
32,2,272
32,2,274
32,2,276
32,2,278
32,2,280
32,2,282
32,2,284
32,2,286
32,2,288
32,2,290
32,2,292
32,2,294
32,2,296
32,2,298
32,2,300
32,2,302
32,2,304
32,2,306
32,2,308
32,2,310
32,2,312
32,2,314
32,2,316
32,2,318
32,2,320
32,2,322
32,2,324
32,2,326
32,2,328
32,2,330
32,2,332
32,2,334
32,2,336
32,2,338
32,2,340
32,2,342
32,2,344
32,2,346
32,2,348
32,2,350
32,2,352
32,2,354
32,2,356
32,2,358
32,2,360
32,3,3
32,3,6
32,3,9
32,3,12
32,3,15
32,3,18
32,3,21
32,3,24
32,3,27
32,3,30
32,3,32
32,3,33
32,3,36
32,3,39
32,3,42
32,3,45
32,3,48
32,3,51
32,3,54
32,3,57
32,3,60
32,3,63
32,3,64
32,3,66
32,3,69
32,3,72
32,3,75
32,3,78
32,3,81
32,3,84
32,3,87
32,3,90
32,3,93
32,3,96
32,3,99
32,3,102
32,3,105
32,3,108
32,3,111
32,3,114
32,3,117
32,3,120
32,3,123
32,3,126
32,3,128
32,3,129
32,3,132
32,3,135
32,3,138
32,3,141
32,3,144
32,3,147
32,3,150
32,3,153
32,3,156
32,3,159
32,3,160
32,3,162
32,3,165
32,3,168
32,3,171
32,3,174
32,3,177
32,3,180
32,3,183
32,3,186
32,3,189
32,3,192
32,3,195
32,3,198
32,3,201
32,3,204
32,3,207
32,3,210
32,3,213
32,3,216
32,3,219
32,3,222
32,3,224
32,3,225
32,3,228
32,3,231
32,3,234
32,3,237
32,3,240
32,3,243
32,3,246
32,3,249
32,3,252
32,3,255
32,3,256
32,3,258
32,3,261
32,3,264
32,3,267
32,3,270
32,3,273
32,3,276
32,3,279
32,3,282
32,3,285
32,3,288
32,3,291
32,3,294
32,3,297
32,3,300
32,3,303
32,3,306
32,3,309
32,3,312
32,3,315
32,3,318
32,3,320
32,3,321
32,3,324
32,3,327
32,3,330
32,3,333
32,3,336
32,3,339
32,3,342
32,3,345
32,3,348
32,3,351
32,4,4
32,4,8
32,4,12
32,4,16
32,4,20
32,4,24
32,4,28
32,4,32
32,4,36
32,4,40
32,4,44
32,4,48
32,4,52
32,4,56
32,4,60
32,4,64
32,4,68
32,4,72
32,4,76
32,4,80
32,4,84
32,4,88
32,4,92
32,4,96
32,4,100
32,4,104
32,4,108
32,4,112
32,4,116
32,4,120
32,4,124
32,4,128
32,4,132
32,4,136
32,4,140
32,4,144
32,4,148
32,4,152
32,4,156
32,4,160
32,4,164
32,4,168
32,4,172
32,4,176
32,4,180
32,4,184
32,4,188
32,4,192
32,4,196
32,4,200
32,4,204
32,4,208
32,4,212
32,4,216
32,4,220
32,4,224
32,4,228
32,4,232
32,4,236
32,4,240
32,4,244
32,4,248
32,4,252
32,4,256
32,4,260
32,4,264
32,4,268
32,4,272
32,4,276
32,4,280
32,4,284
32,4,288
32,4,292
32,4,296
32,4,300
32,4,304
32,4,308
32,4,312
32,4,316
32,4,320
32,4,324
32,4,328
32,4,332
32,4,336
32,4,340
32,5,5
32,5,10
32,5,15
32,5,20
32,5,25
32,5,30
32,5,32
32,5,35
32,5,40
32,5,45
32,5,50
32,5,55
32,5,60
32,5,64
32,5,65
32,5,70
32,5,75
32,5,80
32,5,85
32,5,90
32,5,95
32,5,96
32,5,100
32,5,105
32,5,110
32,5,115
32,5,120
32,5,125
32,5,128
32,5,130
32,5,135
32,5,140
32,5,145
32,5,150
32,5,155
32,5,160
32,5,165
32,5,170
32,5,175
32,5,180
32,5,185
32,5,190
32,5,192
32,5,195
32,5,200
32,5,205
32,5,210
32,5,215
32,5,220
32,5,224
32,5,225
32,5,230
32,5,235
32,5,240
32,5,245
32,5,250
32,5,255
32,5,256
32,5,260
32,5,265
32,5,270
32,5,275
32,5,280
32,5,285
32,5,288
32,5,290
32,5,295
32,5,300
32,5,305
32,5,310
32,5,315
32,5,320
32,5,325
32,5,330
32,6,6
32,6,12
32,6,18
32,6,24
32,6,30
32,6,32
32,6,36
32,6,42
32,6,48
32,6,54
32,6,60
32,6,64
32,6,66
32,6,72
32,6,78
32,6,84
32,6,90
32,6,96
32,6,102
32,6,108
32,6,114
32,6,120
32,6,126
32,6,128
32,6,132
32,6,138
32,6,144
32,6,150
32,6,156
32,6,160
32,6,162
32,6,168
32,6,174
32,6,180
32,6,186
32,6,192
32,6,198
32,6,204
32,6,210
32,6,216
32,6,222
32,6,224
32,6,228
32,6,234
32,6,240
32,6,246
32,6,252
32,6,256
32,6,258
32,6,264
32,6,270
32,6,276
32,6,282
32,6,288
32,6,294
32,6,300
32,6,306
32,6,312
32,6,318
32,6,320
32,7,7
32,7,14
32,7,21
32,7,28
32,7,32
32,7,35
32,7,42
32,7,49
32,7,56
32,7,63
32,7,64
32,7,70
32,7,77
32,7,84
32,7,91
32,7,96
32,7,98
32,7,105
32,7,112
32,7,119
32,7,126
32,7,128
32,7,133
32,7,140
32,7,147
32,7,154
32,7,160
32,7,161
32,7,168
32,7,175
32,7,182
32,7,189
32,7,192
32,7,196
32,7,203
32,7,210
32,7,217
32,7,224
32,7,231
32,7,238
32,7,245
32,7,252
32,7,256
32,7,259
32,7,266
32,7,273
32,7,280
32,7,287
32,7,288
32,7,294
32,7,301
32,7,308
32,7,315
32,8,8
32,8,16
32,8,24
32,8,32
32,8,40
32,8,48
32,8,56
32,8,64
32,8,72
32,8,80
32,8,88
32,8,96
32,8,104
32,8,112
32,8,120
32,8,128
32,8,136
32,8,144
32,8,152
32,8,160
32,8,168
32,8,176
32,8,184
32,8,192
32,8,200
32,8,208
32,8,216
32,8,224
32,8,232
32,8,240
32,8,248
32,8,256
32,8,264
32,8,272
32,8,280
32,8,288
32,8,296
32,8,304
32,9,9
32,9,18
32,9,27
32,9,32
32,9,36
32,9,45
32,9,54
32,9,63
32,9,64
32,9,72
32,9,81
32,9,90
32,9,96
32,9,99
32,9,108
32,9,117
32,9,126
32,9,128
32,9,135
32,9,144
32,9,153
32,9,160
32,9,162
32,9,171
32,9,180
32,9,189
32,9,192
32,9,198
32,9,207
32,9,216
32,9,224
32,9,225
32,9,234
32,9,243
32,9,252
32,9,256
32,9,261
32,9,270
32,9,279
32,9,288
32,9,297
32,10,10
32,10,20
32,10,30
32,10,32
32,10,40
32,10,50
32,10,60
32,10,64
32,10,70
32,10,80
32,10,90
32,10,96
32,10,100
32,10,110
32,10,120
32,10,128
32,10,130
32,10,140
32,10,150
32,10,160
32,10,170
32,10,180
32,10,190
32,10,192
32,10,200
32,10,210
32,10,220
32,10,224
32,10,230
32,10,240
32,10,250
32,10,256
32,10,260
32,10,270
32,10,280
32,10,288
32,10,290
32,11,11
32,11,22
32,11,32
32,11,33
32,11,44
32,11,55
32,11,64
32,11,66
32,11,77
32,11,88
32,11,96
32,11,99
32,11,110
32,11,121
32,11,128
32,11,132
32,11,143
32,11,154
32,11,160
32,11,165
32,11,176
32,11,187
32,11,192
32,11,198
32,11,209
32,11,220
32,11,224
32,11,231
32,11,242
32,11,253
32,11,256
32,11,264
32,11,275
32,12,12
32,12,24
32,12,32
32,12,36
32,12,48
32,12,60
32,12,64
32,12,72
32,12,84
32,12,96
32,12,108
32,12,120
32,12,128
32,12,132
32,12,144
32,12,156
32,12,160
32,12,168
32,12,180
32,12,192
32,12,204
32,12,216
32,12,224
32,12,228
32,12,240
32,12,252
32,12,256
32,12,264
32,12,276
32,13,13
32,13,26
32,13,32
32,13,39
32,13,52
32,13,64
32,13,65
32,13,78
32,13,91
32,13,96
32,13,104
32,13,117
32,13,128
32,13,130
32,13,143
32,13,156
32,13,160
32,13,169
32,13,182
32,13,192
32,13,195
32,13,208
32,13,221
32,13,224
32,13,234
32,13,247
32,13,256
32,13,260
32,13,273
32,14,14
32,14,28
32,14,32
32,14,42
32,14,56
32,14,64
32,14,70
32,14,84
32,14,96
32,14,98
32,14,112
32,14,126
32,14,128
32,14,140
32,14,154
32,14,160
32,14,168
32,14,182
32,14,192
32,14,196
32,14,210
32,14,224
32,14,238
32,14,252
32,14,256
32,14,266
32,15,15
32,15,30
32,15,32
32,15,45
32,15,60
32,15,64
32,15,75
32,15,90
32,15,96
32,15,105
32,15,120
32,15,128
32,15,135
32,15,150
32,15,160
32,15,165
32,15,180
32,15,192
32,15,195
32,15,210
32,15,224
32,15,225
32,15,240
32,15,255
32,15,256
32,16,16
32,16,32
32,16,48
32,16,64
32,16,80
32,16,96
32,16,112
32,16,128
32,16,144
32,16,160
32,16,176
32,16,192
32,16,208
32,16,224
32,16,240
32,16,256
32,17,17
32,17,32
32,17,34
32,17,51
32,17,64
32,17,68
32,17,85
32,17,96
32,17,102
32,17,119
32,17,128
32,17,136
32,17,153
32,17,160
32,17,170
32,17,187
32,17,192
32,17,204
32,17,221
32,17,224
32,17,238
32,18,18
32,18,32
32,18,36
32,18,54
32,18,64
32,18,72
32,18,90
32,18,96
32,18,108
32,18,126
32,18,128
32,18,144
32,18,160
32,18,162
32,18,180
32,18,192
32,18,198
32,18,216
32,18,224
32,18,234
32,19,19
32,19,32
32,19,38
32,19,57
32,19,64
32,19,76
32,19,95
32,19,96
32,19,114
32,19,128
32,19,133
32,19,152
32,19,160
32,19,171
32,19,190
32,19,192
32,19,209
32,19,224
32,19,228
32,20,20
32,20,32
32,20,40
32,20,60
32,20,64
32,20,80
32,20,96
32,20,100
32,20,120
32,20,128
32,20,140
32,20,160
32,20,180
32,20,192
32,20,200
32,20,220
32,20,224
32,21,21
32,21,32
32,21,42
32,21,63
32,21,64
32,21,84
32,21,96
32,21,105
32,21,126
32,21,128
32,21,147
32,21,160
32,21,168
32,21,189
32,21,192
32,21,210
32,21,224
32,21,231
32,22,22
32,22,32
32,22,44
32,22,64
32,22,66
32,22,88
32,22,96
32,22,110
32,22,128
32,22,132
32,22,154
32,22,160
32,22,176
32,22,192
32,22,198
32,22,220
32,22,224
32,23,23
32,23,32
32,23,46
32,23,64
32,23,69
32,23,92
32,23,96
32,23,115
32,23,128
32,23,138
32,23,160
32,23,161
32,23,184
32,23,192
32,23,207
32,24,24
32,24,32
32,24,48
32,24,64
32,24,72
32,24,96
32,24,120
32,24,128
32,24,144
32,24,160
32,24,168
32,24,192
32,24,216
32,25,25
32,25,32
32,25,50
32,25,64
32,25,75
32,25,96
32,25,100
32,25,125
32,25,128
32,25,150
32,25,160
32,25,175
32,25,192
32,25,200
32,26,26
32,26,32
32,26,52
32,26,64
32,26,78
32,26,96
32,26,104
32,26,128
32,26,130
32,26,156
32,26,160
32,26,182
32,26,192
32,26,208
32,27,27
32,27,32
32,27,54
32,27,64
32,27,81
32,27,96
32,27,108
32,27,128
32,27,135
32,27,160
32,27,162
32,27,189
32,27,192
32,28,28
32,28,32
32,28,56
32,28,64
32,28,84
32,28,96
32,28,112
32,28,128
32,28,140
32,28,160
32,28,168
32,28,192
32,28,196
32,29,29
32,29,32
32,29,58
32,29,64
32,29,87
32,29,96
32,29,116
32,29,128
32,29,145
32,29,160
32,29,174
32,29,192
32,30,30
32,30,32
32,30,60
32,30,64
32,30,90
32,30,96
32,30,120
32,30,128
32,30,150
32,30,160
32,30,180
32,30,192
32,31,31
32,31,32
32,31,62
32,31,64
32,31,93
32,31,96
32,31,124
32,31,128
32,31,155
32,31,160
32,31,186
32,31,192
32,32,32
32,32,64
32,32,96
32,32,128
32,32,160
32,32,192
34,16,16
34,16,32
34,16,34
34,16,48
34,16,64
34,16,68
34,16,80
34,16,96
34,16,102
34,16,112
34,16,128
34,16,136
34,16,144
34,16,160
34,16,170
34,16,176
34,16,192
34,16,204
34,16,208
34,16,224
34,16,238
34,16,240
36,8,8
36,8,16
36,8,24
36,8,32
36,8,36
36,8,40
36,8,48
36,8,56
36,8,64
36,8,72
36,8,80
36,8,88
36,8,96
36,8,104
36,8,108
36,8,112
36,8,120
36,8,128
36,8,136
36,8,144
36,8,152
36,8,160
36,8,168
36,8,176
36,8,180
36,8,184
36,8,192
36,8,200
36,8,208
36,8,216
36,8,224
36,8,232
36,8,240
36,8,248
36,8,252
36,8,256
36,8,264
36,8,272
36,16,16
36,16,32
36,16,36
36,16,48
36,16,64
36,16,72
36,16,80
36,16,96
36,16,108
36,16,112
36,16,128
36,16,144
36,16,160
36,16,176
36,16,180
36,16,192
36,16,208
36,16,216
36,16,224
36,24,24
36,24,36
36,24,48
36,24,72
36,24,96
36,24,108
36,24,120
36,24,144
36,24,168
36,24,180
36,24,192
38,16,16
38,16,32
38,16,38
38,16,48
38,16,64
38,16,76
38,16,80
38,16,96
38,16,112
38,16,114
38,16,128
38,16,144
38,16,152
38,16,160
38,16,176
38,16,190
38,16,192
38,16,208
38,16,224
40,4,4
40,4,8
40,4,12
40,4,16
40,4,20
40,4,24
40,4,28
40,4,32
40,4,36
40,4,40
40,4,44
40,4,48
40,4,52
40,4,56
40,4,60
40,4,64
40,4,68
40,4,72
40,4,76
40,4,80
40,4,84
40,4,88
40,4,92
40,4,96
40,4,100
40,4,104
40,4,108
40,4,112
40,4,116
40,4,120
40,4,124
40,4,128
40,4,132
40,4,136
40,4,140
40,4,144
40,4,148
40,4,152
40,4,156
40,4,160
40,4,164
40,4,168
40,4,172
40,4,176
40,4,180
40,4,184
40,4,188
40,4,192
40,4,196
40,4,200
40,4,204
40,4,208
40,4,212
40,4,216
40,4,220
40,4,224
40,4,228
40,4,232
40,4,236
40,4,240
40,4,244
40,4,248
40,4,252
40,4,256
40,4,260
40,4,264
40,4,268
40,4,272
40,4,276
40,8,8
40,8,16
40,8,24
40,8,32
40,8,40
40,8,48
40,8,56
40,8,64
40,8,72
40,8,80
40,8,88
40,8,96
40,8,104
40,8,112
40,8,120
40,8,128
40,8,136
40,8,144
40,8,152
40,8,160
40,8,168
40,8,176
40,8,184
40,8,192
40,8,200
40,8,208
40,8,216
40,8,224
40,8,232
40,8,240
40,8,248
40,8,256
40,12,12
40,12,24
40,12,36
40,12,40
40,12,48
40,12,60
40,12,72
40,12,80
40,12,84
40,12,96
40,12,108
40,12,120
40,12,132
40,12,144
40,12,156
40,12,160
40,12,168
40,12,180
40,12,192
40,12,200
40,12,204
40,12,216
40,12,228
40,16,16
40,16,32
40,16,40
40,16,48
40,16,64
40,16,80
40,16,96
40,16,112
40,16,120
40,16,128
40,16,144
40,16,160
40,16,176
40,16,192
40,16,200
40,16,208
40,20,20
40,20,40
40,20,60
40,20,80
40,20,100
40,20,120
40,20,140
40,20,160
40,20,180
40,20,200
40,24,24
40,24,40
40,24,48
40,24,72
40,24,80
40,24,96
40,24,120
40,24,144
40,24,160
40,24,168
40,24,192
42,16,16
42,16,32
42,16,42
42,16,48
42,16,64
42,16,80
42,16,84
42,16,96
42,16,112
42,16,126
42,16,128
42,16,144
42,16,160
42,16,168
42,16,176
42,16,192
42,16,208
42,16,210
44,8,8
44,8,16
44,8,24
44,8,32
44,8,40
44,8,44
44,8,48
44,8,56
44,8,64
44,8,72
44,8,80
44,8,88
44,8,96
44,8,104
44,8,112
44,8,120
44,8,128
44,8,132
44,8,136
44,8,144
44,8,152
44,8,160
44,8,168
44,8,176
44,8,184
44,8,192
44,8,200
44,8,208
44,8,216
44,8,220
44,8,224
44,8,232
44,16,16
44,16,32
44,16,44
44,16,48
44,16,64
44,16,80
44,16,88
44,16,96
44,16,112
44,16,128
44,16,132
44,16,144
44,16,160
44,16,176
44,16,192
46,16,16
46,16,32
46,16,46
46,16,48
46,16,64
46,16,80
46,16,92
46,16,96
46,16,112
46,16,128
46,16,138
46,16,144
46,16,160
46,16,176
46,16,184
46,16,192
48,2,2
48,2,4
48,2,6
48,2,8
48,2,10
48,2,12
48,2,14
48,2,16
48,2,18
48,2,20
48,2,22
48,2,24
48,2,26
48,2,28
48,2,30
48,2,32
48,2,34
48,2,36
48,2,38
48,2,40
48,2,42
48,2,44
48,2,46
48,2,48
48,2,50
48,2,52
48,2,54
48,2,56
48,2,58
48,2,60
48,2,62
48,2,64
48,2,66
48,2,68
48,2,70
48,2,72
48,2,74
48,2,76
48,2,78
48,2,80
48,2,82
48,2,84
48,2,86
48,2,88
48,2,90
48,2,92
48,2,94
48,2,96
48,2,98
48,2,100
48,2,102
48,2,104
48,2,106
48,2,108
48,2,110
48,2,112
48,2,114
48,2,116
48,2,118
48,2,120
48,2,122
48,2,124
48,2,126
48,2,128
48,2,130
48,2,132
48,2,134
48,2,136
48,2,138
48,2,140
48,2,142
48,2,144
48,2,146
48,2,148
48,2,150
48,2,152
48,2,154
48,2,156
48,2,158
48,2,160
48,2,162
48,2,164
48,2,166
48,2,168
48,2,170
48,2,172
48,2,174
48,2,176
48,2,178
48,2,180
48,2,182
48,2,184
48,2,186
48,2,188
48,2,190
48,2,192
48,2,194
48,2,196
48,2,198
48,2,200
48,2,202
48,2,204
48,2,206
48,2,208
48,2,210
48,2,212
48,2,214
48,2,216
48,2,218
48,2,220
48,2,222
48,2,224
48,2,226
48,2,228
48,2,230
48,2,232
48,2,234
48,2,236
48,2,238
48,2,240
48,2,242
48,2,244
48,4,4
48,4,8
48,4,12
48,4,16
48,4,20
48,4,24
48,4,28
48,4,32
48,4,36
48,4,40
48,4,44
48,4,48
48,4,52
48,4,56
48,4,60
48,4,64
48,4,68
48,4,72
48,4,76
48,4,80
48,4,84
48,4,88
48,4,92
48,4,96
48,4,100
48,4,104
48,4,108
48,4,112
48,4,116
48,4,120
48,4,124
48,4,128
48,4,132
48,4,136
48,4,140
48,4,144
48,4,148
48,4,152
48,4,156
48,4,160
48,4,164
48,4,168
48,4,172
48,4,176
48,4,180
48,4,184
48,4,188
48,4,192
48,4,196
48,4,200
48,4,204
48,4,208
48,4,212
48,4,216
48,4,220
48,4,224
48,4,228
48,4,232
48,4,236
48,6,6
48,6,12
48,6,18
48,6,24
48,6,30
48,6,36
48,6,42
48,6,48
48,6,54
48,6,60
48,6,66
48,6,72
48,6,78
48,6,84
48,6,90
48,6,96
48,6,102
48,6,108
48,6,114
48,6,120
48,6,126
48,6,132
48,6,138
48,6,144
48,6,150
48,6,156
48,6,162
48,6,168
48,6,174
48,6,180
48,6,186
48,6,192
48,6,198
48,6,204
48,6,210
48,6,216
48,6,222
48,8,8
48,8,16
48,8,24
48,8,32
48,8,40
48,8,48
48,8,56
48,8,64
48,8,72
48,8,80
48,8,88
48,8,96
48,8,104
48,8,112
48,8,120
48,8,128
48,8,136
48,8,144
48,8,152
48,8,160
48,8,168
48,8,176
48,8,184
48,8,192
48,8,200
48,8,208
48,8,216
48,10,10
48,10,20
48,10,30
48,10,40
48,10,48
48,10,50
48,10,60
48,10,70
48,10,80
48,10,90
48,10,96
48,10,100
48,10,110
48,10,120
48,10,130
48,10,140
48,10,144
48,10,150
48,10,160
48,10,170
48,10,180
48,10,190
48,10,192
48,10,200
48,10,210
48,12,12
48,12,24
48,12,36
48,12,48
48,12,60
48,12,72
48,12,84
48,12,96
48,12,108
48,12,120
48,12,132
48,12,144
48,12,156
48,12,168
48,12,180
48,12,192
48,12,204
48,14,14
48,14,28
48,14,42
48,14,48
48,14,56
48,14,70
48,14,84
48,14,96
48,14,98
48,14,112
48,14,126
48,14,140
48,14,144
48,14,154
48,14,168
48,14,182
48,14,192
48,14,196
48,16,16
48,16,32
48,16,48
48,16,64
48,16,80
48,16,96
48,16,112
48,16,128
48,16,144
48,16,160
48,16,176
48,16,192
48,18,18
48,18,36
48,18,48
48,18,54
48,18,72
48,18,90
48,18,96
48,18,108
48,18,126
48,18,144
48,18,162
48,18,180
48,20,20
48,20,40
48,20,48
48,20,60
48,20,80
48,20,96
48,20,100
48,20,120
48,20,140
48,20,144
48,20,160
48,20,180
50,16,16
50,16,32
50,16,48
50,16,50
50,16,64
50,16,80
50,16,96
50,16,100
50,16,112
50,16,128
50,16,144
50,16,150
50,16,160
50,16,176
52,8,8
52,8,16
52,8,24
52,8,32
52,8,40
52,8,48
52,8,52
52,8,56
52,8,64
52,8,72
52,8,80
52,8,88
52,8,96
52,8,104
52,8,112
52,8,120
52,8,128
52,8,136
52,8,144
52,8,152
52,8,156
52,8,160
52,8,168
52,8,176
52,8,184
52,8,192
52,8,200
52,16,16
52,16,32
52,16,48
52,16,52
52,16,64
52,16,80
52,16,96
52,16,104
52,16,112
52,16,128
52,16,144
52,16,156
52,16,160
52,16,176
54,16,16
54,16,32
54,16,48
54,16,54
54,16,64
54,16,80
54,16,96
54,16,108
54,16,112
54,16,128
54,16,144
54,16,160
54,16,162
56,4,4
56,4,8
56,4,12
56,4,16
56,4,20
56,4,24
56,4,28
56,4,32
56,4,36
56,4,40
56,4,44
56,4,48
56,4,52
56,4,56
56,4,60
56,4,64
56,4,68
56,4,72
56,4,76
56,4,80
56,4,84
56,4,88
56,4,92
56,4,96
56,4,100
56,4,104
56,4,108
56,4,112
56,4,116
56,4,120
56,4,124
56,4,128
56,4,132
56,4,136
56,4,140
56,4,144
56,4,148
56,4,152
56,4,156
56,4,160
56,4,164
56,4,168
56,4,172
56,4,176
56,4,180
56,4,184
56,4,188
56,4,192
56,4,196
56,4,200
56,4,204
56,8,8
56,8,16
56,8,24
56,8,32
56,8,40
56,8,48
56,8,56
56,8,64
56,8,72
56,8,80
56,8,88
56,8,96
56,8,104
56,8,112
56,8,120
56,8,128
56,8,136
56,8,144
56,8,152
56,8,160
56,8,168
56,8,176
56,8,184
56,8,192
56,12,12
56,12,24
56,12,36
56,12,48
56,12,56
56,12,60
56,12,72
56,12,84
56,12,96
56,12,108
56,12,112
56,12,120
56,12,132
56,12,144
56,12,156
56,12,168
56,12,180
56,16,16
56,16,32
56,16,48
56,16,56
56,16,64
56,16,80
56,16,96
56,16,112
56,16,128
56,16,144
56,16,160
56,16,168
58,16,16
58,16,32
58,16,48
58,16,58
58,16,64
58,16,80
58,16,96
58,16,112
58,16,116
58,16,128
58,16,144
58,16,160
60,8,8
60,8,16
60,8,24
60,8,32
60,8,40
60,8,48
60,8,56
60,8,60
60,8,64
60,8,72
60,8,80
60,8,88
60,8,96
60,8,104
60,8,112
60,8,120
60,8,128
60,8,136
60,8,144
60,8,152
60,8,160
60,8,168
60,8,176
60,8,180
60,16,16
60,16,32
60,16,48
60,16,60
60,16,64
60,16,80
60,16,96
60,16,112
60,16,120
60,16,128
60,16,144
60,16,160
62,16,16
62,16,32
62,16,48
62,16,62
62,16,64
62,16,80
62,16,96
62,16,112
62,16,124
62,16,128
62,16,144
64,2,2
64,2,4
64,2,6
64,2,8
64,2,10
64,2,12
64,2,14
64,2,16
64,2,18
64,2,20
64,2,22
64,2,24
64,2,26
64,2,28
64,2,30
64,2,32
64,2,34
64,2,36
64,2,38
64,2,40
64,2,42
64,2,44
64,2,46
64,2,48
64,2,50
64,2,52
64,2,54
64,2,56
64,2,58
64,2,60
64,2,62
64,2,64
64,2,66
64,2,68
64,2,70
64,2,72
64,2,74
64,2,76
64,2,78
64,2,80
64,2,82
64,2,84
64,2,86
64,2,88
64,2,90
64,2,92
64,2,94
64,2,96
64,2,98
64,2,100
64,2,102
64,2,104
64,2,106
64,2,108
64,2,110
64,2,112
64,2,114
64,2,116
64,2,118
64,2,120
64,2,122
64,2,124
64,2,126
64,2,128
64,2,130
64,2,132
64,2,134
64,2,136
64,2,138
64,2,140
64,2,142
64,2,144
64,2,146
64,2,148
64,2,150
64,2,152
64,2,154
64,2,156
64,2,158
64,2,160
64,2,162
64,2,164
64,2,166
64,2,168
64,2,170
64,2,172
64,2,174
64,2,176
64,2,178
64,2,180
64,2,182
64,2,184
64,2,186
64,3,3
64,3,6
64,3,9
64,3,12
64,3,15
64,3,18
64,3,21
64,3,24
64,3,27
64,3,30
64,3,33
64,3,36
64,3,39
64,3,42
64,3,45
64,3,48
64,3,51
64,3,54
64,3,57
64,3,60
64,3,63
64,3,64
64,3,66
64,3,69
64,3,72
64,3,75
64,3,78
64,3,81
64,3,84
64,3,87
64,3,90
64,3,93
64,3,96
64,3,99
64,3,102
64,3,105
64,3,108
64,3,111
64,3,114
64,3,117
64,3,120
64,3,123
64,3,126
64,3,128
64,3,129
64,3,132
64,3,135
64,3,138
64,3,141
64,3,144
64,3,147
64,3,150
64,3,153
64,3,156
64,3,159
64,3,162
64,3,165
64,3,168
64,3,171
64,3,174
64,3,177
64,3,180
64,3,183
64,4,4
64,4,8
64,4,12
64,4,16
64,4,20
64,4,24
64,4,28
64,4,32
64,4,36
64,4,40
64,4,44
64,4,48
64,4,52
64,4,56
64,4,60
64,4,64
64,4,68
64,4,72
64,4,76
64,4,80
64,4,84
64,4,88
64,4,92
64,4,96
64,4,100
64,4,104
64,4,108
64,4,112
64,4,116
64,4,120
64,4,124
64,4,128
64,4,132
64,4,136
64,4,140
64,4,144
64,4,148
64,4,152
64,4,156
64,4,160
64,4,164
64,4,168
64,4,172
64,4,176
64,4,180
64,5,5
64,5,10
64,5,15
64,5,20
64,5,25
64,5,30
64,5,35
64,5,40
64,5,45
64,5,50
64,5,55
64,5,60
64,5,64
64,5,65
64,5,70
64,5,75
64,5,80
64,5,85
64,5,90
64,5,95
64,5,100
64,5,105
64,5,110
64,5,115
64,5,120
64,5,125
64,5,128
64,5,130
64,5,135
64,5,140
64,5,145
64,5,150
64,5,155
64,5,160
64,5,165
64,5,170
64,5,175
64,6,6
64,6,12
64,6,18
64,6,24
64,6,30
64,6,36
64,6,42
64,6,48
64,6,54
64,6,60
64,6,64
64,6,66
64,6,72
64,6,78
64,6,84
64,6,90
64,6,96
64,6,102
64,6,108
64,6,114
64,6,120
64,6,126
64,6,128
64,6,132
64,6,138
64,6,144
64,6,150
64,6,156
64,6,162
64,6,168
64,6,174
64,7,7
64,7,14
64,7,21
64,7,28
64,7,35
64,7,42
64,7,49
64,7,56
64,7,63
64,7,64
64,7,70
64,7,77
64,7,84
64,7,91
64,7,98
64,7,105
64,7,112
64,7,119
64,7,126
64,7,128
64,7,133
64,7,140
64,7,147
64,7,154
64,7,161
64,7,168
64,8,8
64,8,16
64,8,24
64,8,32
64,8,40
64,8,48
64,8,56
64,8,64
64,8,72
64,8,80
64,8,88
64,8,96
64,8,104
64,8,112
64,8,120
64,8,128
64,8,136
64,8,144
64,8,152
64,8,160
64,8,168
64,9,9
64,9,18
64,9,27
64,9,36
64,9,45
64,9,54
64,9,63
64,9,64
64,9,72
64,9,81
64,9,90
64,9,99
64,9,108
64,9,117
64,9,126
64,9,128
64,9,135
64,9,144
64,9,153
64,9,162
64,10,10
64,10,20
64,10,30
64,10,40
64,10,50
64,10,60
64,10,64
64,10,70
64,10,80
64,10,90
64,10,100
64,10,110
64,10,120
64,10,128
64,10,130
64,10,140
64,10,150
64,10,160
64,11,11
64,11,22
64,11,33
64,11,44
64,11,55
64,11,64
64,11,66
64,11,77
64,11,88
64,11,99
64,11,110
64,11,121
64,11,128
64,11,132
64,11,143
64,11,154
64,12,12
64,12,24
64,12,36
64,12,48
64,12,60
64,12,64
64,12,72
64,12,84
64,12,96
64,12,108
64,12,120
64,12,128
64,12,132
64,12,144
64,12,156
64,13,13
64,13,26
64,13,39
64,13,52
64,13,64
64,13,65
64,13,78
64,13,91
64,13,104
64,13,117
64,13,128
64,13,130
64,13,143
64,13,156
64,14,14
64,14,28
64,14,42
64,14,56
64,14,64
64,14,70
64,14,84
64,14,98
64,14,112
64,14,126
64,14,128
64,14,140
64,14,154
64,15,15
64,15,30
64,15,45
64,15,60
64,15,64
64,15,75
64,15,90
64,15,105
64,15,120
64,15,128
64,15,135
64,15,150
64,16,16
64,16,32
64,16,48
64,16,64
64,16,80
64,16,96
64,16,112
64,16,128
64,16,144
68,8,8
68,8,16
68,8,24
68,8,32
68,8,40
68,8,48
68,8,56
68,8,64
68,8,68
68,8,72
68,8,80
68,8,88
68,8,96
68,8,104
68,8,112
68,8,120
68,8,128
68,8,136
68,8,144
68,8,152
68,8,160
72,4,4
72,4,8
72,4,12
72,4,16
72,4,20
72,4,24
72,4,28
72,4,32
72,4,36
72,4,40
72,4,44
72,4,48
72,4,52
72,4,56
72,4,60
72,4,64
72,4,68
72,4,72
72,4,76
72,4,80
72,4,84
72,4,88
72,4,92
72,4,96
72,4,100
72,4,104
72,4,108
72,4,112
72,4,116
72,4,120
72,4,124
72,4,128
72,4,132
72,4,136
72,4,140
72,4,144
72,4,148
72,4,152
72,4,156
72,4,160
72,8,8
72,8,16
72,8,24
72,8,32
72,8,40
72,8,48
72,8,56
72,8,64
72,8,72
72,8,80
72,8,88
72,8,96
72,8,104
72,8,112
72,8,120
72,8,128
72,8,136
72,8,144
72,8,152
72,12,12
72,12,24
72,12,36
72,12,48
72,12,60
72,12,72
72,12,84
72,12,96
72,12,108
72,12,120
72,12,132
72,12,144
76,8,8
76,8,16
76,8,24
76,8,32
76,8,40
76,8,48
76,8,56
76,8,64
76,8,72
76,8,76
76,8,80
76,8,88
76,8,96
76,8,104
76,8,112
76,8,120
76,8,128
76,8,136
76,8,144
80,2,2
80,2,4
80,2,6
80,2,8
80,2,10
80,2,12
80,2,14
80,2,16
80,2,18
80,2,20
80,2,22
80,2,24
80,2,26
80,2,28
80,2,30
80,2,32
80,2,34
80,2,36
80,2,38
80,2,40
80,2,42
80,2,44
80,2,46
80,2,48
80,2,50
80,2,52
80,2,54
80,2,56
80,2,58
80,2,60
80,2,62
80,2,64
80,2,66
80,2,68
80,2,70
80,2,72
80,2,74
80,2,76
80,2,78
80,2,80
80,2,82
80,2,84
80,2,86
80,2,88
80,2,90
80,2,92
80,2,94
80,2,96
80,2,98
80,2,100
80,2,102
80,2,104
80,2,106
80,2,108
80,2,110
80,2,112
80,2,114
80,2,116
80,2,118
80,2,120
80,2,122
80,2,124
80,2,126
80,2,128
80,2,130
80,2,132
80,2,134
80,2,136
80,2,138
80,2,140
80,2,142
80,2,144
80,2,146
80,2,148
80,4,4
80,4,8
80,4,12
80,4,16
80,4,20
80,4,24
80,4,28
80,4,32
80,4,36
80,4,40
80,4,44
80,4,48
80,4,52
80,4,56
80,4,60
80,4,64
80,4,68
80,4,72
80,4,76
80,4,80
80,4,84
80,4,88
80,4,92
80,4,96
80,4,100
80,4,104
80,4,108
80,4,112
80,4,116
80,4,120
80,4,124
80,4,128
80,4,132
80,4,136
80,4,140
80,4,144
80,6,6
80,6,12
80,6,18
80,6,24
80,6,30
80,6,36
80,6,42
80,6,48
80,6,54
80,6,60
80,6,66
80,6,72
80,6,78
80,6,80
80,6,84
80,6,90
80,6,96
80,6,102
80,6,108
80,6,114
80,6,120
80,6,126
80,6,132
80,6,138
80,8,8
80,8,16
80,8,24
80,8,32
80,8,40
80,8,48
80,8,56
80,8,64
80,8,72
80,8,80
80,8,88
80,8,96
80,8,104
80,8,112
80,8,120
80,8,128
80,8,136
80,10,10
80,10,20
80,10,30
80,10,40
80,10,50
80,10,60
80,10,70
80,10,80
80,10,90
80,10,100
80,10,110
80,10,120
80,10,130
80,12,12
80,12,24
80,12,36
80,12,48
80,12,60
80,12,72
80,12,80
80,12,84
80,12,96
80,12,108
80,12,120
80,12,132
84,8,8
84,8,16
84,8,24
84,8,32
84,8,40
84,8,48
84,8,56
84,8,64
84,8,72
84,8,80
84,8,84
84,8,88
84,8,96
84,8,104
84,8,112
84,8,120
84,8,128
88,4,4
88,4,8
88,4,12
88,4,16
88,4,20
88,4,24
88,4,28
88,4,32
88,4,36
88,4,40
88,4,44
88,4,48
88,4,52
88,4,56
88,4,60
88,4,64
88,4,68
88,4,72
88,4,76
88,4,80
88,4,84
88,4,88
88,4,92
88,4,96
88,4,100
88,4,104
88,4,108
88,4,112
88,4,116
88,4,120
88,4,124
88,4,128
88,4,132
88,8,8
88,8,16
88,8,24
88,8,32
88,8,40
88,8,48
88,8,56
88,8,64
88,8,72
88,8,80
88,8,88
88,8,96
88,8,104
88,8,112
88,8,120
88,8,128
92,8,8
92,8,16
92,8,24
92,8,32
92,8,40
92,8,48
92,8,56
92,8,64
92,8,72
92,8,80
92,8,88
92,8,92
92,8,96
92,8,104
92,8,112
92,8,120
96,2,2
96,2,4
96,2,6
96,2,8
96,2,10
96,2,12
96,2,14
96,2,16
96,2,18
96,2,20
96,2,22
96,2,24
96,2,26
96,2,28
96,2,30
96,2,32
96,2,34
96,2,36
96,2,38
96,2,40
96,2,42
96,2,44
96,2,46
96,2,48
96,2,50
96,2,52
96,2,54
96,2,56
96,2,58
96,2,60
96,2,62
96,2,64
96,2,66
96,2,68
96,2,70
96,2,72
96,2,74
96,2,76
96,2,78
96,2,80
96,2,82
96,2,84
96,2,86
96,2,88
96,2,90
96,2,92
96,2,94
96,2,96
96,2,98
96,2,100
96,2,102
96,2,104
96,2,106
96,2,108
96,2,110
96,2,112
96,2,114
96,2,116
96,2,118
96,2,120
96,2,122
96,2,124
96,3,3
96,3,6
96,3,9
96,3,12
96,3,15
96,3,18
96,3,21
96,3,24
96,3,27
96,3,30
96,3,33
96,3,36
96,3,39
96,3,42
96,3,45
96,3,48
96,3,51
96,3,54
96,3,57
96,3,60
96,3,63
96,3,66
96,3,69
96,3,72
96,3,75
96,3,78
96,3,81
96,3,84
96,3,87
96,3,90
96,3,93
96,3,96
96,3,99
96,3,102
96,3,105
96,3,108
96,3,111
96,3,114
96,3,117
96,3,120
96,3,123
96,4,4
96,4,8
96,4,12
96,4,16
96,4,20
96,4,24
96,4,28
96,4,32
96,4,36
96,4,40
96,4,44
96,4,48
96,4,52
96,4,56
96,4,60
96,4,64
96,4,68
96,4,72
96,4,76
96,4,80
96,4,84
96,4,88
96,4,92
96,4,96
96,4,100
96,4,104
96,4,108
96,4,112
96,4,116
96,4,120
96,5,5
96,5,10
96,5,15
96,5,20
96,5,25
96,5,30
96,5,35
96,5,40
96,5,45
96,5,50
96,5,55
96,5,60
96,5,65
96,5,70
96,5,75
96,5,80
96,5,85
96,5,90
96,5,95
96,5,96
96,5,100
96,5,105
96,5,110
96,5,115
96,5,120
96,6,6
96,6,12
96,6,18
96,6,24
96,6,30
96,6,36
96,6,42
96,6,48
96,6,54
96,6,60
96,6,66
96,6,72
96,6,78
96,6,84
96,6,90
96,6,96
96,6,102
96,6,108
96,6,114
96,6,120
96,7,7
96,7,14
96,7,21
96,7,28
96,7,35
96,7,42
96,7,49
96,7,56
96,7,63
96,7,70
96,7,77
96,7,84
96,7,91
96,7,96
96,7,98
96,7,105
96,7,112
96,7,119
96,8,8
96,8,16
96,8,24
96,8,32
96,8,40
96,8,48
96,8,56
96,8,64
96,8,72
96,8,80
96,8,88
96,8,96
96,8,104
96,8,112
96,9,9
96,9,18
96,9,27
96,9,36
96,9,45
96,9,54
96,9,63
96,9,72
96,9,81
96,9,90
96,9,96
96,9,99
96,9,108
96,9,117
96,10,10
96,10,20
96,10,30
96,10,40
96,10,50
96,10,60
96,10,70
96,10,80
96,10,90
96,10,96
96,10,100
96,10,110
100,8,8
100,8,16
100,8,24
100,8,32
100,8,40
100,8,48
100,8,56
100,8,64
100,8,72
100,8,80
100,8,88
100,8,96
100,8,100
100,8,104
100,8,112
104,4,4
104,4,8
104,4,12
104,4,16
104,4,20
104,4,24
104,4,28
104,4,32
104,4,36
104,4,40
104,4,44
104,4,48
104,4,52
104,4,56
104,4,60
104,4,64
104,4,68
104,4,72
104,4,76
104,4,80
104,4,84
104,4,88
104,4,92
104,4,96
104,4,100
104,4,104
104,4,108
104,4,112
104,8,8
104,8,16
104,8,24
104,8,32
104,8,40
104,8,48
104,8,56
104,8,64
104,8,72
104,8,80
104,8,88
104,8,96
104,8,104
108,8,8
108,8,16
108,8,24
108,8,32
108,8,40
108,8,48
108,8,56
108,8,64
108,8,72
108,8,80
108,8,88
108,8,96
108,8,104
112,2,2
112,2,4
112,2,6
112,2,8
112,2,10
112,2,12
112,2,14
112,2,16
112,2,18
112,2,20
112,2,22
112,2,24
112,2,26
112,2,28
112,2,30
112,2,32
112,2,34
112,2,36
112,2,38
112,2,40
112,2,42
112,2,44
112,2,46
112,2,48
112,2,50
112,2,52
112,2,54
112,2,56
112,2,58
112,2,60
112,2,62
112,2,64
112,2,66
112,2,68
112,2,70
112,2,72
112,2,74
112,2,76
112,2,78
112,2,80
112,2,82
112,2,84
112,2,86
112,2,88
112,2,90
112,2,92
112,2,94
112,2,96
112,2,98
112,2,100
112,2,102
112,2,104
112,2,106
112,4,4
112,4,8
112,4,12
112,4,16
112,4,20
112,4,24
112,4,28
112,4,32
112,4,36
112,4,40
112,4,44
112,4,48
112,4,52
112,4,56
112,4,60
112,4,64
112,4,68
112,4,72
112,4,76
112,4,80
112,4,84
112,4,88
112,4,92
112,4,96
112,4,100
112,4,104
112,6,6
112,6,12
112,6,18
112,6,24
112,6,30
112,6,36
112,6,42
112,6,48
112,6,54
112,6,60
112,6,66
112,6,72
112,6,78
112,6,84
112,6,90
112,6,96
112,6,102
112,8,8
112,8,16
112,8,24
112,8,32
112,8,40
112,8,48
112,8,56
112,8,64
112,8,72
112,8,80
112,8,88
112,8,96
116,8,8
116,8,16
116,8,24
116,8,32
116,8,40
116,8,48
116,8,56
116,8,64
116,8,72
116,8,80
116,8,88
116,8,96
120,4,4
120,4,8
120,4,12
120,4,16
120,4,20
120,4,24
120,4,28
120,4,32
120,4,36
120,4,40
120,4,44
120,4,48
120,4,52
120,4,56
120,4,60
120,4,64
120,4,68
120,4,72
120,4,76
120,4,80
120,4,84
120,4,88
120,4,92
120,4,96
120,8,8
120,8,16
120,8,24
120,8,32
120,8,40
120,8,48
120,8,56
120,8,64
120,8,72
120,8,80
120,8,88
120,8,96
124,8,8
124,8,16
124,8,24
124,8,32
124,8,40
124,8,48
124,8,56
124,8,64
124,8,72
124,8,80
124,8,88
128,2,2
128,2,4
128,2,6
128,2,8
128,2,10
128,2,12
128,2,14
128,2,16
128,2,18
128,2,20
128,2,22
128,2,24
128,2,26
128,2,28
128,2,30
128,2,32
128,2,34
128,2,36
128,2,38
128,2,40
128,2,42
128,2,44
128,2,46
128,2,48
128,2,50
128,2,52
128,2,54
128,2,56
128,2,58
128,2,60
128,2,62
128,2,64
128,2,66
128,2,68
128,2,70
128,2,72
128,2,74
128,2,76
128,2,78
128,2,80
128,2,82
128,2,84
128,2,86
128,2,88
128,2,90
128,2,92
128,2,94
128,3,3
128,3,6
128,3,9
128,3,12
128,3,15
128,3,18
128,3,21
128,3,24
128,3,27
128,3,30
128,3,33
128,3,36
128,3,39
128,3,42
128,3,45
128,3,48
128,3,51
128,3,54
128,3,57
128,3,60
128,3,63
128,3,66
128,3,69
128,3,72
128,3,75
128,3,78
128,3,81
128,3,84
128,3,87
128,3,90
128,3,93
128,4,4
128,4,8
128,4,12
128,4,16
128,4,20
128,4,24
128,4,28
128,4,32
128,4,36
128,4,40
128,4,44
128,4,48
128,4,52
128,4,56
128,4,60
128,4,64
128,4,68
128,4,72
128,4,76
128,4,80
128,4,84
128,4,88
128,4,92
128,5,5
128,5,10
128,5,15
128,5,20
128,5,25
128,5,30
128,5,35
128,5,40
128,5,45
128,5,50
128,5,55
128,5,60
128,5,65
128,5,70
128,5,75
128,5,80
128,5,85
128,5,90
128,6,6
128,6,12
128,6,18
128,6,24
128,6,30
128,6,36
128,6,42
128,6,48
128,6,54
128,6,60
128,6,66
128,6,72
128,6,78
128,6,84
128,6,90
128,7,7
128,7,14
128,7,21
128,7,28
128,7,35
128,7,42
128,7,49
128,7,56
128,7,63
128,7,70
128,7,77
128,7,84
128,7,91
128,8,8
128,8,16
128,8,24
128,8,32
128,8,40
128,8,48
128,8,56
128,8,64
128,8,72
128,8,80
128,8,88
136,4,4
136,4,8
136,4,12
136,4,16
136,4,20
136,4,24
136,4,28
136,4,32
136,4,36
136,4,40
136,4,44
136,4,48
136,4,52
136,4,56
136,4,60
136,4,64
136,4,68
136,4,72
136,4,76
136,4,80
136,4,84
144,2,2
144,2,4
144,2,6
144,2,8
144,2,10
144,2,12
144,2,14
144,2,16
144,2,18
144,2,20
144,2,22
144,2,24
144,2,26
144,2,28
144,2,30
144,2,32
144,2,34
144,2,36
144,2,38
144,2,40
144,2,42
144,2,44
144,2,46
144,2,48
144,2,50
144,2,52
144,2,54
144,2,56
144,2,58
144,2,60
144,2,62
144,2,64
144,2,66
144,2,68
144,2,70
144,2,72
144,2,74
144,2,76
144,2,78
144,2,80
144,2,82
144,2,84
144,4,4
144,4,8
144,4,12
144,4,16
144,4,20
144,4,24
144,4,28
144,4,32
144,4,36
144,4,40
144,4,44
144,4,48
144,4,52
144,4,56
144,4,60
144,4,64
144,4,68
144,4,72
144,4,76
144,4,80
144,6,6
144,6,12
144,6,18
144,6,24
144,6,30
144,6,36
144,6,42
144,6,48
144,6,54
144,6,60
144,6,66
144,6,72
144,6,78
152,4,4
152,4,8
152,4,12
152,4,16
152,4,20
152,4,24
152,4,28
152,4,32
152,4,36
152,4,40
152,4,44
152,4,48
152,4,52
152,4,56
152,4,60
152,4,64
152,4,68
152,4,72
152,4,76
160,2,2
160,2,4
160,2,6
160,2,8
160,2,10
160,2,12
160,2,14
160,2,16
160,2,18
160,2,20
160,2,22
160,2,24
160,2,26
160,2,28
160,2,30
160,2,32
160,2,34
160,2,36
160,2,38
160,2,40
160,2,42
160,2,44
160,2,46
160,2,48
160,2,50
160,2,52
160,2,54
160,2,56
160,2,58
160,2,60
160,2,62
160,2,64
160,2,66
160,2,68
160,2,70
160,2,72
160,2,74
160,3,3
160,3,6
160,3,9
160,3,12
160,3,15
160,3,18
160,3,21
160,3,24
160,3,27
160,3,30
160,3,33
160,3,36
160,3,39
160,3,42
160,3,45
160,3,48
160,3,51
160,3,54
160,3,57
160,3,60
160,3,63
160,3,66
160,3,69
160,3,72
160,3,75
160,4,4
160,4,8
160,4,12
160,4,16
160,4,20
160,4,24
160,4,28
160,4,32
160,4,36
160,4,40
160,4,44
160,4,48
160,4,52
160,4,56
160,4,60
160,4,64
160,4,68
160,4,72
160,5,5
160,5,10
160,5,15
160,5,20
160,5,25
160,5,30
160,5,35
160,5,40
160,5,45
160,5,50
160,5,55
160,5,60
160,5,65
160,5,70
160,6,6
160,6,12
160,6,18
160,6,24
160,6,30
160,6,36
160,6,42
160,6,48
160,6,54
160,6,60
160,6,66
160,6,72
168,4,4
168,4,8
168,4,12
168,4,16
168,4,20
168,4,24
168,4,28
168,4,32
168,4,36
168,4,40
168,4,44
168,4,48
168,4,52
168,4,56
168,4,60
168,4,64
168,4,68
176,2,2
176,2,4
176,2,6
176,2,8
176,2,10
176,2,12
176,2,14
176,2,16
176,2,18
176,2,20
176,2,22
176,2,24
176,2,26
176,2,28
176,2,30
176,2,32
176,2,34
176,2,36
176,2,38
176,2,40
176,2,42
176,2,44
176,2,46
176,2,48
176,2,50
176,2,52
176,2,54
176,2,56
176,2,58
176,2,60
176,2,62
176,2,64
176,2,66
176,2,68
176,4,4
176,4,8
176,4,12
176,4,16
176,4,20
176,4,24
176,4,28
176,4,32
176,4,36
176,4,40
176,4,44
176,4,48
176,4,52
176,4,56
176,4,60
176,4,64
176,4,68
184,4,4
184,4,8
184,4,12
184,4,16
184,4,20
184,4,24
184,4,28
184,4,32
184,4,36
184,4,40
184,4,44
184,4,48
184,4,52
184,4,56
184,4,60
184,4,64
192,2,2
192,2,4
192,2,6
192,2,8
192,2,10
192,2,12
192,2,14
192,2,16
192,2,18
192,2,20
192,2,22
192,2,24
192,2,26
192,2,28
192,2,30
192,2,32
192,2,34
192,2,36
192,2,38
192,2,40
192,2,42
192,2,44
192,2,46
192,2,48
192,2,50
192,2,52
192,2,54
192,2,56
192,2,58
192,2,60
192,2,62
192,3,3
192,3,6
192,3,9
192,3,12
192,3,15
192,3,18
192,3,21
192,3,24
192,3,27
192,3,30
192,3,33
192,3,36
192,3,39
192,3,42
192,3,45
192,3,48
192,3,51
192,3,54
192,3,57
192,3,60
192,3,63
192,4,4
192,4,8
192,4,12
192,4,16
192,4,20
192,4,24
192,4,28
192,4,32
192,4,36
192,4,40
192,4,44
192,4,48
192,4,52
192,4,56
192,4,60
192,5,5
192,5,10
192,5,15
192,5,20
192,5,25
192,5,30
192,5,35
192,5,40
192,5,45
192,5,50
192,5,55
192,5,60
