{
    "global_title": "Naive matrix multiplication - Performance relative to the top configuration",
    "ylabel": "Relative performance (%)",
    "type": "grouped_bar",
    "color": "#79c36a",
    "align": "center",
    "linewidth": 0.5,
    "width": 1.0,
    "horizontal_lines_major": "True",
    "horizontal_lines_minor": "True",
    "axhline": [50, 0, 1, "#f1595f", 2],
    "subplots": {
        "position": [221, 222],
        "title": ["Performance grouped by block_size_x", "Performance grouped by block_size_y"],
        "xlabel": ["block_size_x", "block_size_y"],
        "xticks": [
            {
                "identifier_labels": [6,192]
            },
            {
                "identifier_labels": [2,128]
            }
        ],
        "ydata": [
            {
                "row": 2,
                "type": "float",
                "transform": "First divide row 2 by 1000 to convert from ms to s, then divide the amount of arithmetic instructions ((4096 * 2) * 4096 * 4096 = 137438953472) by the amount of s to get the FLOPS. Finally divide by 1000000000 to get the amount of GFLOPS.",
                "transform": ["divide_this", 1000, "divide_that", 137438953472, "divide_this", 1000000000, "divide_this", 344.3013076053315, "multiply", 100]
            },
            {
                "row": 3,
                "type": "float",
                "transform": "First divide row 3 by 1000 to convert from ms to s, then divide the amount of arithmetic instructions ((4096 * 2) * 4096 * 4096 = 137438953472) by the amount of s to get the FLOPS. Finally divide by 1000000000 to get the amount of GFLOPS.",
                "transform": ["divide_this", 1000, "divide_that", 137438953472, "divide_this", 1000000000, "divide_this", 344.3013076053315, "multiply", 100]
            }
        ]
    },
    "xdata": {
        "row": 0,
        "type": "int"
    },
    "ylim": [0, 100],
    "custom_subplot_config": {"top": 0.925},
    "tight": "True",
    "csv": "primary_block_size,secondary_block_size,time_primary_block_size_x(ms),time_primary_block_size_y(ms)",
    "csv": [
        "1,32,3266.7958170572915,963.3111979166666",
        "1,64,3181.132080078125,960.7549438476562",
        "1,96,3180.2303873697915,956.1501871744791",
        "1,128,3159.8680826822915,963.2900797526041",
        "1,160,3184.0455729166665,958.5152384440104",
        "1,192,3179.3199055989585,965.7679036458334",
        "1,224,3251.9739583333335,960.1338500976562",
        "1,256,3279.7985026041665,968.1833292643229",
        "1,288,3347.6161295572915,960.6179402669271",
        "1,320,3365.8645833333335,963.8109334309896",
        "1,352,3399.694091796875,965.9552205403646",
        "1,384,3411.2840983072915,968.9988810221354",
        "1,416,3474.9989420572915,964.1703694661459",
        "1,448,3587.0199381510415,968.3760782877604",
        "1,480,3670.9507649739585,962.5898640950521",
        "1,512,3642.8645833333335,966.9766438802084",
        "1,544,3656.7871907552085,968.7295735677084",
        "1,576,3786.0777180989585,971.0305379231771",
        "1,608,3713.78857421875,963.0898640950521",
        "1,640,3802.9401041666665,969.8126220703125",
        "1,672,3943.1368001302085,962.0490112304688",
        "1,704,3746.1680501302085,968.722900390625",
        "1,736,3756.715087890625,966.0087687174479",
        "1,768,3943.8174641927085,977.517822265625",
        "1,800,4078.7333984375,970.1819051106771",
        "1,832,4192.796223958333,968.8126831054688",
        "1,864,4177.79833984375,965.1457112630209",
        "1,896,4233.500325520833,970.2008260091146",
        "1,928,4277.660319010417,965.3782755533854",
        "1,960,4385.373372395833,967.0213012695312",
        "1,992,4481.58251953125,962.7056477864584",
        "1,1024,4551.135416666667,966.8526000976562",
        "2,16,1688.0692138671875,752.5757853190104",
        "2,32,1674.92822265625,769.4446207682291",
        "2,48,1628.3410237630208,970.4674072265625",
        "2,64,1607.4112548828125,901.0753580729166",
        "2,80,1627.6050618489583,967.6389973958334",
        "2,96,1630.4673665364583,917.0731608072916",
        "2,112,1613.8983968098958,905.0574747721354",
        "2,128,1604.3965250651042,759.0458374023438",
        "2,144,1615.901123046875,884.5958658854166",
        "2,160,1631.73046875,914.8857828776041",
        "2,176,1623.5872802734375,961.8282063802084",
        "2,192,1619.4418131510417,928.2005818684896",
        "2,208,1641.9941813151042,960.5209147135416",
        "2,224,1656.0813395182292,924.9999593098959",
        "2,240,1661.6222737630208,936.2098388671875",
        "2,256,1683.6841634114583,811.9128824869791",
        "2,272,1657.1562093098958,941.11376953125",
        "2,288,1683.5405680338542,925.4473673502604",
        "2,304,1699.6133219401042,964.9184366861979",
        "2,320,1704.8899332682292,940.5216878255209",
        "2,336,1733.3304850260417,961.7642211914062",
        "2,352,1641.1879475911458,887.2698364257812",
        "2,368,1665.2865397135417,942.0724894205729",
        "2,384,1667.7431640625,917.2162679036459",
        "2,400,1714.758544921875,952.4063924153646",
        "2,416,1715.8939615885417,929.9944661458334",
        "2,432,1735.6725667317708,958.4197998046875",
        "2,448,1738.5912272135417,933.6739095052084",
        "2,464,1757.5453694661458,963.1466267903646",
        "2,480,1776.8379720052083,937.7803955078125",
        "2,496,1783.8123779296875,944.5250651041666",
        "2,512,1795.6787923177083,948.1302286783854",
        "3,32,1255.7480061848958,901.1717122395834",
        "3,64,1198.1845296223958,841.7316487630209",
        "3,96,1211.65234375,918.0261637369791",
        "3,128,1281.7224527994792,668.5693766276041",
        "3,160,1386.7729899088542,911.4784342447916",
        "3,192,1462.3294270833333,880.7939860026041",
        "3,224,1517.74609375,906.5718180338541",
        "3,256,1549.2276611328125,909.174560546875",
        "3,288,1591.68896484375,893.7500813802084",
        "3,320,1601.22705078125,905.6819864908854",
        "4,8,993.0770874023438,818.7303059895834",
        "4,16,994.9325968424479,665.3712565104166",
        "4,24,956.7263793945312,846.2933146158854",
        "4,32,915.1766764322916,681.0501098632812",
        "4,40,874.3973185221354,908.72314453125",
        "4,48,878.3763427734375,867.0096232096354",
        "4,56,885.9081217447916,918.1825968424479",
        "4,64,916.3123779296875,781.2156168619791",
        "4,72,966.48388671875,949.6092325846354",
        "4,80,1018.6272989908854,835.9270222981771",
        "4,88,1045.66064453125,939.0161539713541",
        "4,96,1083.8448079427083,734.5306193033854",
        "4,104,1106.4130045572917,916.1217854817709",
        "4,112,1145.3657633463542,814.2088623046875",
        "4,120,1164.5676676432292,850.0359090169271",
        "4,128,1183.0396728515625,648.7078857421875",
        "4,136,1202.0924479166667,863.740966796875",
        "4,144,1220.8948974609375,817.1148274739584",
        "4,152,1240.1684977213542,886.8587239583334",
        "4,160,1242.30078125,787.8827311197916",
        "4,168,1255.2489420572917,957.1998291015625",
        "4,176,1247.2746988932292,726.0855916341146",
        "4,184,1258.1548665364583,898.658935546875",
        "4,192,1273.6348876953125,789.3069254557291",
        "4,200,1307.887939453125,908.7779134114584",
        "4,208,1298.3094075520833,900.2717488606771",
        "4,216,1320.3489583333333,936.6663818359375",
        "4,224,1308.3107503255208,851.7036336263021",
        "4,232,1329.5976969401042,946.3184611002604",
        "4,240,1317.1199137369792,898.4784952799479",
        "4,248,1331.2736409505208,920.8384806315104",
        "4,256,1332.170654296875,885.9089965820312",
        "5,32,885.6405843098959,714.5211385091146",
        "5,64,850.1109212239584,706.0090128580729",
        "5,96,930.9839477539062,820.1173095703125",
        "5,128,1066.0070393880208,623.1531168619791",
        "5,160,1153.3359375,748.7026163736979",
        "5,192,1183.95458984375,821.0105794270834",
        "6,16,947.6842651367188,771.7564493815104",
        "6,32,736.5427042643229,649.6668090820312",
        "6,48,729.4609375,803.17138671875",
        "6,64,736.5592447916666,672.9260457356771",
        "6,80,801.629638671875,830.9023030598959",
        "6,96,886.5073445638021,745.2327473958334",
        "6,112,964.1857503255209,829.8165486653646",
        "6,128,992.0969034830729,723.3800252278646",
        "6,144,1055.6304524739583,803.541259765625",
        "6,160,1066.0978190104167,794.6473592122396",
        "7,32,729.4758911132812,669.4359334309896",
        "7,64,706.4619344075521,646.7889811197916",
        "7,96,836.8127644856771,768.4806315104166",
        "7,128,944.1980387369791,729.8368733723959",
        "8,4,818.7303059895834,993.0770874023438",
        "8,8,778.93212890625,778.93212890625",
        "8,12,842.1151936848959,838.8043009440104",
        "8,16,634.6757609049479,610.5954793294271",
        "8,20,698.6846516927084,701.8603108723959",
        "8,24,618.3835856119791,658.12744140625",
        "8,28,657.4797770182291,737.7135620117188",
        "8,32,534.17333984375,559.4905395507812",
        "8,36,575.1273193359375,795.2768961588541",
        "8,40,529.9116007486979,735.2225748697916",
        "8,44,518.6526285807291,871.7774658203125",
        "8,48,518.92724609375,643.839111328125",
        "8,52,506.84503173828125,916.5123697916666",
        "8,56,524.136474609375,763.1282145182291",
        "8,60,566.9507039388021,850.8349812825521",
        "8,64,556.5184326171875,652.3100179036459",
        "8,68,567.008544921875,872.9434611002604",
        "8,72,588.5369669596354,793.4293009440104",
        "8,76,630.3622029622396,811.8557942708334",
        "8,80,625.6644694010416,708.9556477864584",
        "8,84,658.7962239583334,913.1602986653646",
        "8,88,591.5138549804688,589.7822672526041",
        "8,92,631.5582885742188,773.6916097005209",
        "8,96,646.8542277018229,586.6474609375",
        "8,100,669.5728556315104,850.7105712890625",
        "8,104,691.8884684244791,821.6564127604166",
        "8,108,726.2444661458334,900.590087890625",
        "8,112,711.43701171875,764.2108154296875",
        "8,116,746.3277384440104,903.7924601236979",
        "8,120,723.9838256835938,809.6484171549479",
        "8,124,752.6400553385416,884.9382731119791",
        "8,128,741.0548299153646,732.8912963867188",
        "9,32,660.232666015625,630.2061157226562",
        "9,64,634.7644246419271,613.2021891276041",
        "9,96,752.3307902018229,707.0483194986979",
        "10,16,730.1155192057291,644.0994466145834",
        "10,32,618.2518107096354,568.7770589192709",
        "10,48,627.2779337565104,702.54736328125",
        "10,64,598.6428629557291,614.6244913736979",
        "10,80,624.6936238606771,724.8981730143229",
        "10,96,708.5895792643229,685.8165893554688",
        "11,32,645.7679239908854,598.1783243815104",
        "11,64,603.8190104166666,531.6451619466146",
        "12,8,838.8043009440104,842.1151936848959",
        "12,16,655.8087361653646,586.0564575195312",
        "12,24,635.1702880859375,644.2050577799479",
        "12,32,527.9026082356771,528.3114827473959",
        "12,40,577.1545613606771,723.7345581054688",
        "12,48,526.1221516927084,661.7610473632812",
        "12,56,561.8070271809896,780.6169637044271",
        "12,64,539.9971110026041,530.0132039388021",
        "12,72,586.5293172200521,788.8744506835938",
        "12,80,609.2093098958334,731.8129069010416",
        "13,32,602.8108723958334,587.0245971679688",
        "13,64,582.7259521484375,577.475830078125",
        "14,16,685.7003580729166,592.6771647135416",
        "14,32,578.9453735351562,533.5376993815104",
        "14,48,585.6655069986979,683.2173055013021",
        "14,64,564.6528116861979,572.7188924153646",
        "15,32,627.7083129882812,555.8557535807291",
        "15,64,580.3574422200521,596.8249308268229",
        "16,2,752.5757853190104,1688.0692138671875",
        "16,4,665.3712565104166,994.9325968424479",
        "16,6,771.7564493815104,947.6842651367188",
        "16,8,610.5954793294271,634.6757609049479",
        "16,10,644.0994466145834,730.1155192057291",
        "16,12,586.0564575195312,655.8087361653646",
        "16,14,592.6771647135416,685.7003580729166",
        "16,16,494.0262858072917,494.0262858072917",
        "16,18,562.9459431966146,654.6693115234375",
        "16,20,498.01746622721356,611.9408365885416",
        "16,22,523.5785725911459,652.0787150065104",
        "16,24,453.83750406901044,545.0694173177084",
        "16,26,476.22386678059894,683.3284708658854",
        "16,28,452.2663879394531,628.1619059244791",
        "16,30,495.5468241373698,688.7431437174479",
        "16,32,448.37591552734375,521.1309611002604",
        "16,34,405.4344991048177,708.8801472981771",
        "16,36,405.2469177246094,696.5730387369791",
        "16,38,446.02405802408856,739.0391845703125",
        "16,40,408.9497375488281,642.7748413085938",
        "16,42,465.68651326497394,778.413330078125",
        "16,44,407.81223551432294,676.7035319010416",
        "16,46,403.9084065755208,715.4670206705729",
        "16,48,401.2633056640625,548.3162231445312",
        "16,50,404.4980875651042,717.0380859375",
        "16,52,399.1822001139323,715.7719319661459",
        "16,54,408.6108093261719,806.7659301757812",
        "16,56,399.3675537109375,696.421630859375",
        "16,58,428.48619588216144,800.422607421875",
        "16,60,411.20798746744794,784.3749389648438",
        "16,62,426.26064046223956,852.8780924479166",
        "16,64,409.3751729329427,558.1326293945312",
        "17,32,594.1787923177084,525.3770751953125",
        "18,16,654.6693115234375,562.9459431966146",
        "18,32,575.5066731770834,519.9883626302084",
        "18,48,559.7974853515625,643.0447387695312",
        "19,32,600.2231648763021,527.2656860351562",
        "20,8,701.8603108723959,698.6846516927084",
        "20,16,611.9408365885416,498.01746622721356",
        "20,24,593.9577840169271,590.1741943359375",
        "20,32,551.559814453125,513.5374755859375",
        "20,40,546.1927286783854,595.5732014973959",
        "20,48,538.7370402018229,626.3801879882812",
        "21,32,628.4039103190104,532.4857584635416",
        "22,16,652.0787150065104,523.5785725911459",
        "22,32,624.7461751302084,526.3077799479166",
        "23,32,635.8038940429688,519.3965250651041",
        "24,4,846.2933146158854,956.7263793945312",
        "24,8,658.12744140625,618.3835856119791",
        "24,12,644.2050577799479,635.1702880859375",
        "24,16,545.0694173177084,453.83750406901044",
        "24,20,590.1741943359375,593.9577840169271",
        "24,24,530.4102172851562,530.4102172851562",
        "24,28,568.4768880208334,634.196044921875",
        "24,32,512.378662109375,513.8112996419271",
        "24,36,519.625732421875,679.0115559895834",
        "24,40,509.4782002766927,647.9778035481771",
        "25,32,634.7314249674479,513.7772013346354",
        "26,16,683.3284708658854,476.22386678059894",
        "26,32,623.4142252604166,510.086669921875",
        "27,32,645.2221476236979,510.70513916015625",
        "28,8,737.7135620117188,657.4797770182291",
        "28,16,628.1619059244791,452.2663879394531",
        "28,24,634.196044921875,568.4768880208334",
        "28,32,604.6133219401041,509.2627868652344",
        "29,32,668.1359659830729,514.3759765625",
        "30,16,688.7431437174479,495.5468241373698",
        "30,32,660.9993082682291,510.83997599283856",
        "31,32,688.4750773111979,511.57582600911456",
        "32,1,963.3111979166666,3266.7958170572915",
        "32,2,769.4446207682291,1674.92822265625",
        "32,3,901.1717122395834,1255.7480061848958",
        "32,4,681.0501098632812,915.1766764322916",
        "32,5,714.5211385091146,885.6405843098959",
        "32,6,649.6668090820312,736.5427042643229",
        "32,7,669.4359334309896,729.4758911132812",
        "32,8,559.4905395507812,534.17333984375",
        "32,9,630.2061157226562,660.232666015625",
        "32,10,568.7770589192709,618.2518107096354",
        "32,11,598.1783243815104,645.7679239908854",
        "32,12,528.3114827473959,527.9026082356771",
        "32,13,587.0245971679688,602.8108723958334",
        "32,14,533.5376993815104,578.9453735351562",
        "32,15,555.8557535807291,627.7083129882812",
        "32,16,521.1309611002604,448.37591552734375",
        "32,17,525.3770751953125,594.1787923177084",
        "32,18,519.9883626302084,575.5066731770834",
        "32,19,527.2656860351562,600.2231648763021",
        "32,20,513.5374755859375,551.559814453125",
        "32,21,532.4857584635416,628.4039103190104",
        "32,22,526.3077799479166,624.7461751302084",
        "32,23,519.3965250651041,635.8038940429688",
        "32,24,513.8112996419271,512.378662109375",
        "32,25,513.7772013346354,634.7314249674479",
        "32,26,510.086669921875,623.4142252604166",
        "32,27,510.70513916015625,645.2221476236979",
        "32,28,509.2627868652344,604.6133219401041",
        "32,29,514.3759765625,668.1359659830729",
        "32,30,510.83997599283856,660.9993082682291",
        "32,31,511.57582600911456,688.4750773111979",
        "32,32,510.4938557942708,510.4938557942708",
        "34,16,708.8801472981771,405.4344991048177",
        "36,8,795.2768961588541,575.1273193359375",
        "36,16,696.5730387369791,405.2469177246094",
        "36,24,679.0115559895834,519.625732421875",
        "38,16,739.0391845703125,446.02405802408856",
        "40,4,908.72314453125,874.3973185221354",
        "40,8,735.2225748697916,529.9116007486979",
        "40,12,723.7345581054688,577.1545613606771",
        "40,16,642.7748413085938,408.9497375488281",
        "40,20,595.5732014973959,546.1927286783854",
        "40,24,647.9778035481771,509.4782002766927",
        "42,16,778.413330078125,465.68651326497394",
        "44,8,871.7774658203125,518.6526285807291",
        "44,16,676.7035319010416,407.81223551432294",
        "46,16,715.4670206705729,403.9084065755208",
        "48,2,970.4674072265625,1628.3410237630208",
        "48,4,867.0096232096354,878.3763427734375",
        "48,6,803.17138671875,729.4609375",
        "48,8,643.839111328125,518.92724609375",
        "48,10,702.54736328125,627.2779337565104",
        "48,12,661.7610473632812,526.1221516927084",
        "48,14,683.2173055013021,585.6655069986979",
        "48,16,548.3162231445312,401.2633056640625",
        "48,18,643.0447387695312,559.7974853515625",
        "48,20,626.3801879882812,538.7370402018229",
        "50,16,717.0380859375,404.4980875651042",
        "52,8,916.5123697916666,506.84503173828125",
        "52,16,715.7719319661459,399.1822001139323",
        "54,16,806.7659301757812,408.6108093261719",
        "56,4,918.1825968424479,885.9081217447916",
        "56,8,763.1282145182291,524.136474609375",
        "56,12,780.6169637044271,561.8070271809896",
        "56,16,696.421630859375,399.3675537109375",
        "58,16,800.422607421875,428.48619588216144",
        "60,8,850.8349812825521,566.9507039388021",
        "60,16,784.3749389648438,411.20798746744794",
        "62,16,852.8780924479166,426.26064046223956",
        "64,1,960.7549438476562,3181.132080078125",
        "64,2,901.0753580729166,1607.4112548828125",
        "64,3,841.7316487630209,1198.1845296223958",
        "64,4,781.2156168619791,916.3123779296875",
        "64,5,706.0090128580729,850.1109212239584",
        "64,6,672.9260457356771,736.5592447916666",
        "64,7,646.7889811197916,706.4619344075521",
        "64,8,652.3100179036459,556.5184326171875",
        "64,9,613.2021891276041,634.7644246419271",
        "64,10,614.6244913736979,598.6428629557291",
        "64,11,531.6451619466146,603.8190104166666",
        "64,12,530.0132039388021,539.9971110026041",
        "64,13,577.475830078125,582.7259521484375",
        "64,14,572.7188924153646,564.6528116861979",
        "64,15,596.8249308268229,580.3574422200521",
        "64,16,558.1326293945312,409.3751729329427",
        "68,8,872.9434611002604,567.008544921875",
        "72,4,949.6092325846354,966.48388671875",
        "72,8,793.4293009440104,588.5369669596354",
        "72,12,788.8744506835938,586.5293172200521",
        "76,8,811.8557942708334,630.3622029622396",
        "80,2,967.6389973958334,1627.6050618489583",
        "80,4,835.9270222981771,1018.6272989908854",
        "80,6,830.9023030598959,801.629638671875",
        "80,8,708.9556477864584,625.6644694010416",
        "80,10,724.8981730143229,624.6936238606771",
        "80,12,731.8129069010416,609.2093098958334",
        "84,8,913.1602986653646,658.7962239583334",
        "88,4,939.0161539713541,1045.66064453125",
        "88,8,589.7822672526041,591.5138549804688",
        "92,8,773.6916097005209,631.5582885742188",
        "96,1,956.1501871744791,3180.2303873697915",
        "96,2,917.0731608072916,1630.4673665364583",
        "96,3,918.0261637369791,1211.65234375",
        "96,4,734.5306193033854,1083.8448079427083",
        "96,5,820.1173095703125,930.9839477539062",
        "96,6,745.2327473958334,886.5073445638021",
        "96,7,768.4806315104166,836.8127644856771",
        "96,8,586.6474609375,646.8542277018229",
        "96,9,707.0483194986979,752.3307902018229",
        "96,10,685.8165893554688,708.5895792643229",
        "100,8,850.7105712890625,669.5728556315104",
        "104,4,916.1217854817709,1106.4130045572917",
        "104,8,821.6564127604166,691.8884684244791",
        "108,8,900.590087890625,726.2444661458334",
        "112,2,905.0574747721354,1613.8983968098958",
        "112,4,814.2088623046875,1145.3657633463542",
        "112,6,829.8165486653646,964.1857503255209",
        "112,8,764.2108154296875,711.43701171875",
        "116,8,903.7924601236979,746.3277384440104",
        "120,4,850.0359090169271,1164.5676676432292",
        "120,8,809.6484171549479,723.9838256835938",
        "124,8,884.9382731119791,752.6400553385416",
        "128,1,963.2900797526041,3159.8680826822915",
        "128,2,759.0458374023438,1604.3965250651042",
        "128,3,668.5693766276041,1281.7224527994792",
        "128,4,648.7078857421875,1183.0396728515625",
        "128,5,623.1531168619791,1066.0070393880208",
        "128,6,723.3800252278646,992.0969034830729",
        "128,7,729.8368733723959,944.1980387369791",
        "128,8,732.8912963867188,741.0548299153646",
        "136,4,863.740966796875,1202.0924479166667",
        "144,2,884.5958658854166,1615.901123046875",
        "144,4,817.1148274739584,1220.8948974609375",
        "144,6,803.541259765625,1055.6304524739583",
        "152,4,886.8587239583334,1240.1684977213542",
        "160,1,958.5152384440104,3184.0455729166665",
        "160,2,914.8857828776041,1631.73046875",
        "160,3,911.4784342447916,1386.7729899088542",
        "160,4,787.8827311197916,1242.30078125",
        "160,5,748.7026163736979,1153.3359375",
        "160,6,794.6473592122396,1066.0978190104167",
        "168,4,957.1998291015625,1255.2489420572917",
        "176,2,961.8282063802084,1623.5872802734375",
        "176,4,726.0855916341146,1247.2746988932292",
        "184,4,898.658935546875,1258.1548665364583",
        "192,1,965.7679036458334,3179.3199055989585",
        "192,2,928.2005818684896,1619.4418131510417",
        "192,3,880.7939860026041,1462.3294270833333",
        "192,4,789.3069254557291,1273.6348876953125",
        "192,5,821.0105794270834,1183.95458984375",
        "200,4,908.7779134114584,1307.887939453125",
        "208,2,960.5209147135416,1641.9941813151042",
        "208,4,900.2717488606771,1298.3094075520833",
        "216,4,936.6663818359375,1320.3489583333333",
        "224,1,960.1338500976562,3251.9739583333335",
        "224,2,924.9999593098959,1656.0813395182292",
        "224,3,906.5718180338541,1517.74609375",
        "224,4,851.7036336263021,1308.3107503255208",
        "232,4,946.3184611002604,1329.5976969401042",
        "240,2,936.2098388671875,1661.6222737630208",
        "240,4,898.4784952799479,1317.1199137369792",
        "248,4,920.8384806315104,1331.2736409505208",
        "256,1,968.1833292643229,3279.7985026041665",
        "256,2,811.9128824869791,1683.6841634114583",
        "256,3,909.174560546875,1549.2276611328125",
        "256,4,885.9089965820312,1332.170654296875",
        "272,2,941.11376953125,1657.1562093098958",
        "288,1,960.6179402669271,3347.6161295572915",
        "288,2,925.4473673502604,1683.5405680338542",
        "288,3,893.7500813802084,1591.68896484375",
        "304,2,964.9184366861979,1699.6133219401042",
        "320,1,963.8109334309896,3365.8645833333335",
        "320,2,940.5216878255209,1704.8899332682292",
        "320,3,905.6819864908854,1601.22705078125",
        "336,2,961.7642211914062,1733.3304850260417",
        "352,1,965.9552205403646,3399.694091796875",
        "352,2,887.2698364257812,1641.1879475911458",
        "368,2,942.0724894205729,1665.2865397135417",
        "384,1,968.9988810221354,3411.2840983072915",
        "384,2,917.2162679036459,1667.7431640625",
        "400,2,952.4063924153646,1714.758544921875",
        "416,1,964.1703694661459,3474.9989420572915",
        "416,2,929.9944661458334,1715.8939615885417",
        "432,2,958.4197998046875,1735.6725667317708",
        "448,1,968.3760782877604,3587.0199381510415",
        "448,2,933.6739095052084,1738.5912272135417",
        "464,2,963.1466267903646,1757.5453694661458",
        "480,1,962.5898640950521,3670.9507649739585",
        "480,2,937.7803955078125,1776.8379720052083",
        "496,2,944.5250651041666,1783.8123779296875",
        "512,1,966.9766438802084,3642.8645833333335",
        "512,2,948.1302286783854,1795.6787923177083",
        "544,1,968.7295735677084,3656.7871907552085",
        "576,1,971.0305379231771,3786.0777180989585",
        "608,1,963.0898640950521,3713.78857421875",
        "640,1,969.8126220703125,3802.9401041666665",
        "672,1,962.0490112304688,3943.1368001302085",
        "704,1,968.722900390625,3746.1680501302085",
        "736,1,966.0087687174479,3756.715087890625",
        "768,1,977.517822265625,3943.8174641927085",
        "800,1,970.1819051106771,4078.7333984375",
        "832,1,968.8126831054688,4192.796223958333",
        "864,1,965.1457112630209,4177.79833984375",
        "896,1,970.2008260091146,4233.500325520833",
        "928,1,965.3782755533854,4277.660319010417",
        "960,1,967.0213012695312,4385.373372395833",
        "992,1,962.7056477864584,4481.58251953125",
        "1024,1,966.8526000976562,4551.135416666667"
    ]
}
