{
    "title": "Naive matrix multiplication column only access - auto tuning amount of data sharing for (1,1024) block size",
    "xlabel": "Number of groups per block (1024 threads) sharing data",
    "ylabel": "GFLOPS",
    "type": "bar",
    "color": "#599ad3",
    "align": "center",
    "horizontal_lines_major": "True",
    "xticks": {
        "start": "",
        "separator": "",
        "end": "",
        "rows": [2]
    },
    "xdata": {
        "row": -1
    },
    "ydata": {
        "row": 3,
        "type": "float",
        "transform": "First divide row 3 by 1000 to convert from ms to s, then divide the amount of instructions ((4096 * 2 + 1) * 4096 * 4096 = 137455730688) by the amount of s to get the FLOPS. Finally divide by 1000000000 to get the amount of GFLOPS.",
        "transform": ["divide_this", 1000, "divide_that", 137455730688, "divide_this", 1000000000]
    },
    "csv": "block_size_x,block_size_y,stride,time(ms)",
    "csv": [
        "1,1024,1,523.6999267578125",
        "1,1024,2,529.1867797851562",
        "1,1024,4,530.9205810546875",
        "1,1024,8,534.7903686523438",
        "1,1024,16,574.033447265625",
        "1,1024,32,975.4605590820313",
        "1,1024,64,971.3983276367187",
        "1,1024,128,1084.2533203125",
        "1,1024,256,1660.4740478515625",
        "1,1024,512,1988.728955078125",
        "1,1024,1024,2173.865380859375"
    ]
}
