{
    "title": "Naive matrix multiplication combined relative column only and row only access - auto tuning thread block size",
    "xlabel": "Configurations (block_size_x,block_size_y)",
    "ylabel": "Relative performance compared to top result",
    "type": "stacked_bar",
    "color": ["#79c36a","#599ad3"],
    "align": "center",
    "horizontal_lines_major": "True",
    "xticks": {
        "start": "(",
        "separator": ",",
        "end": ")",
        "rows": [0,1]
    },
    "xticks_rotation": 270,
    "xdata": {
        "row": -1
    },
    "ydata": [
        {
            "row": 2,
            "type": "float",
            "transform": "First divide row 2 by 1000 to convert from ms to s, then divide the amount of instructions ((4096 * 2 + 1) * 4096 * 4096 = 137455730688) by the amount of s to get the FLOPS. Then divide by 1000000000 to get the amount of GFLOPS. Finally divide by 259.806438117, which was the best reached GFLOPS on this row, in order to get the relative performance compared to the top performance.",
            "transform": ["divide_this", 1000, "divide_that", 137455730688, "divide_this", 1000000000, "divide_this", 259.806438117]
        },
        {
            "row": 3,
            "type": "float",
            "transform": "First divide row 3 by 1000 to convert from ms to s, then divide the amount of instructions ((4096 * 2 + 1) * 4096 * 4096 = 137455730688) by the amount of s to get the FLOPS. Then divide by 1000000000 to get the amount of GFLOPS. Finally divide by 430.798379041, which was the best reached GFLOPS on this row, in order to get the relative performance compared to the top performance.",
            "transform": ["divide_this", 1000, "divide_that", 137455730688, "divide_this", 1000000000, "divide_this", 430.798379041]
        }
    ],
    "bottom": ["None", 0],
    "labels": ["column only accesses", "row only accesses"],
    "tight": "True",
    "legend": {
        "loc": "upper left"
    },
    "csv": "block_size_x,block_size_y,time_row_only(ms),time_column_only(ms)",
    "csv": [
        "1,1,30005.617578125,9955.50546875",
        "1,2,14951.328125,7173.970703125",
        "1,4,7440.76806640625,7044.3982421875",
        "1,8,3653.799755859375,6319.85390625",
        "1,16,1780.5220947265625,6310.13603515625",
        "1,32,909.4359008789063,6528.8728515625",
        "1,64,991.563525390625,6231.9748046875",
        "1,128,601.2180053710938,6347.2291015625",
        "1,256,606.0119262695313,10359.3056640625",
        "1,512,587.955615234375,15824.766796875",
        "1,1024,534.11748046875,24959.961328125",
        "2,1,12820.0009765625,5080.54580078125",
        "2,2,4887.79296875,3681.565234375",
        "2,4,2488.435009765625,3543.185400390625",
        "2,8,1241.8626953125,3198.457177734375",
        "2,16,975.6659912109375,3174.413671875",
        "2,32,1191.9114990234375,3161.0720703125",
        "2,64,652.1062866210938,3038.80302734375",
        "2,128,604.7521118164062,3073.279443359375",
        "2,256,586.0012573242187,3175.256005859375",
        "2,512,532.3978759765625,3496.377685546875",
        "4,1,8184.89208984375,2561.24638671875",
        "4,2,4036.049951171875,1927.33564453125",
        "4,4,2021.7392333984376,1779.305419921875",
        "4,8,1231.8998046875,1630.7888427734374",
        "4,16,1361.8847900390624,1594.2783203125",
        "4,32,1090.61787109375,1594.1120361328126",
        "4,64,620.2518188476563,1646.2766845703125",
        "4,128,584.0889038085937,2096.805712890625",
        "4,256,529.0697631835938,2384.272119140625",
        "8,1,5978.05615234375,1290.281494140625",
        "8,2,2994.786865234375,1010.9978515625",
        "8,4,1504.64453125,902.10751953125",
        "8,8,1433.07685546875,821.2730590820313",
        "8,16,1213.0107666015624,795.1995849609375",
        "8,32,933.0183959960938,809.011572265625",
        "8,64,648.7781860351563,791.6126831054687",
        "8,128,538.32451171875,1010.7910766601562",
        "16,1,3034.413623046875,649.5038208007812",
        "16,2,1521.3705078125,521.3118041992187",
        "16,4,1472.87724609375,454.65643310546875",
        "16,8,1249.599658203125,417.0767883300781",
        "16,16,938.251904296875,408.78564453125",
        "16,32,732.9356689453125,423.644921875",
        "16,64,645.613525390625,410.2910095214844",
        "32,1,1919.8713134765626,351.014697265625",
        "32,2,1661.05126953125,321.3249084472656",
        "32,4,1459.6591064453125,319.8566589355469",
        "32,8,1089.54853515625,319.30797119140624",
        "32,16,919.1777587890625,319.0720703125",
        "32,32,896.1894653320312,319.40341796875",
        "64,1,1915.5576904296875,322.0180419921875",
        "64,2,1915.1594482421874,324.0685241699219",
        "64,4,1477.94833984375,320.03635864257814",
        "64,8,1217.4896728515625,319.22832641601565",
        "64,16,1319.2845947265625,319.3952209472656",
        "128,1,1916.8224609375,326.0196960449219",
        "128,2,1479.3532470703126,334.45191650390626",
        "128,4,1218.504541015625,320.7275390625",
        "128,8,1543.418359375,319.6855163574219",
        "256,1,1928.6188720703126,337.6722900390625",
        "256,2,1590.8650390625,338.01947021484375",
        "256,4,1810.57919921875,323.50775146484375",
        "512,1,1918.4801025390625,337.608544921875",
        "512,2,1895.8211181640625,336.733544921875",
        "1024,1,1920.1292724609375,340.45289306640626"
    ]
}
